Place,Name,Country,WeightClassKg,BodyweightKg,Division,Sex,Equipment,Squat1Kg,Squat2Kg,Squat3Kg,Squat4Kg,Best3SquatKg,Bench1Kg,Bench2Kg,Bench3Kg,Bench4Kg,Best3BenchKg,Deadlift1Kg,Deadlift2Kg,Deadlift3Kg,Deadlift4Kg,Best3DeadliftKg,TotalKg,Event
1,Marko Loponen,Finland,90,89.9,Open,M,Multi-ply,-302.5,305,-315,,305,235,-245,-245,,235,265,280,-290,,280,820,SBD
2,Joni Nikkari,Finland,125,124.3,Open,M,Multi-ply,-310,315,335,,335,160,170,-180,,170,270,300,-310,,300,805,SBD
3,Janne Nissilä,Finland,90,87.4,Open,M,Multi-ply,220,-250,265,,265,190,-200,-202.5,,190,230,-247.5,-247.5,,230,685,SBD
DQ,Jarkko Holviala,Finland,100,99.9,Masters 2,M,Multi-ply,-260,-275,-285,,,-165,,,,,-200,,,,,,SBD
DQ,Matti Lehto,Finland,140,139.6,Open,M,Multi-ply,-435,-435,-460,,,-200,,,,,-320,,,,,,SBD
1,Jani-Pekka Eirala,Finland,110,109.8,Open,M,Wraps,375,-390,-390,,375,220,230,235,,235,350,360,-370,,360,970,SBD
2,Eduard Khanjyan,Finland,110,108.3,Open,M,Wraps,360,-380,380,-410,380,200,210,-215,,210,320,-340,,,320,910,SBD
3,Teemu Tulonen,Finland,125,119.9,Open,M,Wraps,295,320,335,,335,190,200,-205,,200,330,352.5,-360,,352.5,887.5,SBD
4,Ville Suominen,Finland,110,109.3,Open,M,Wraps,240,267.5,275,,275,170,-180,-180,,170,300,-315,-315,,300,745,SBD
5,Markus Sutinen,Finland,110,109,Open,M,Wraps,285,-307.5,-320,,285,145,155,-160,,155,280,300,-307.5,,300,740,SBD
6,Jani Rautiainen,Finland,75,74.6,Juniors,M,Wraps,180,195,205,,205,120,130,135,,135,210,225,235,,235,575,SBD
7,Henri Vauto,Finland,82.5,81.3,Open,M,Wraps,205,220,-230,,220,130,137.5,142.5,,142.5,215,230,245,,245,607.5,SBD
8,Jani Soininen,Finland,100,98.8,Open,M,Wraps,220,232.5,-245,,232.5,152.5,-160,-160,,152.5,260,275,285,,285,670,SBD
9,Sami Flygare,Finland,125,124.7,Open,M,Wraps,210,-230,250,,250,170,185,190,,190,210,240,260,,260,700,SBD
10,Joni Rautiainen,Finland,75,74.6,Juniors,M,Wraps,175,185,-200,,185,120,130,-140,,130,205,210,215,,215,530,SBD
11,Simo Mäkelä,Finland,82.5,76,Open,M,Wraps,160,180,-190,,180,100,-105,,,100,205,225,-240,,225,505,SBD
12,Runi Lång,Finland,110,107.5,Open,M,Wraps,190,200,205,,205,135,145,152.5,,152.5,220,235,250,,250,607.5,SBD
13,Vellu Karhu,Finland,110,108,Masters 2,M,Wraps,190,205,220,,220,120,130,135,,135,-205,220,-230,,220,575,SBD
DQ,Janne Heikkilä,Finland,90,89.8,Juniors,M,Wraps,200,-210,210,,210,-170,-175,-175,,,-260,,,,,,SBD
DQ,Antti Pirttijärvi,Finland,100,99.9,Juniors,M,Wraps,245,-260,-260,,245,-130,,,,,-210,,,,,,SBD
DQ,Joona Leppäjärvi,Finland,100,99.9,Juniors,M,Wraps,-260,-270,-270,,,-140,,,,,-230,,,,,,SBD
1,Minna Kousa,Finland,75,74.9,Open,F,Multi-ply,180,190,-200,,190,105,110,-115,,110,165,-175,-175,,165,465,SBD
1,Miia Keränen,Finland,90,89.1,Juniors,F,Wraps,152.5,162.5,-170,,162.5,80,90,-92.5,,90,165,172.5,-180,,172.5,425,SBD
2,Melina Keltaniemi,Finland,52,51.9,Juniors,F,Wraps,40,55,65,70,65,30,40,-45,45,40,57.5,70,80,90,80,185,SBD
DQ,Vesa Partala,Finland,82.5,82.1,Open,M,Multi-ply,,,,,,-270,-270,-280,,,,,,,,,B
DQ,Veli-Matti Salmi,Finland,110,107.3,Open,M,Multi-ply,,,,,,-280,-290,-290,,,,,,,,,B
1,Raiko Borissov,Estonia,140,136.8,Open,M,Raw,,,,,,235,-245,-250,,235,,,,,,235,B
2,Sten Haugas,Sweden,140,136.4,Open,M,Raw,,,,,,220,-230,-235,,220,,,,,,220,B
3,Jaakko Vänttinen,Finland,100,99.1,Open,M,Raw,,,,,,200,-220,,,200,,,,,,200,B
4,Roope Kaura,Finland,90,89.8,Open,M,Raw,,,,,,175,185,-200,,185,,,,,,185,B
5,Jari-Pekka Suominen,Finland,100,99.1,Masters 2,M,Raw,,,,,,185,195,-200,,195,,,,,,195,B
6,Ardo Lilleorg,Estonia,110,108.2,Open,M,Raw,,,,,,190,195,-200,,195,,,,,,195,B
7,Jarkko Niemelä,Finland,125,119.3,Open,M,Raw,,,,,,180,190,200,,200,,,,,,200,B
8,Esa Pellikka,Finland,110,109.9,Open,M,Raw,,,,,,190,-200,-207.5,,190,,,,,,190,B
9,Miiko Kyöttinen,Finland,90,89.9,Juniors,M,Raw,,,,,,155,165,-175,,165,,,,,,165,B
10,Otto Laine,Finland,82.5,80.4,Open,M,Raw,,,,,,140,150,-160,,150,,,,,,150,B
11,Janne Loippo,Finland,90,89.9,Open,M,Raw,,,,,,155,160,-165,,160,,,,,,160,B
12,Mats Erikson,Sweden,100,90.6,Open,M,Raw,,,,,,140,150,160,,160,,,,,,160,B
13,Juha Ojanen,Finland,110,106.8,Masters 3,M,Raw,,,,,,155,162.5,-167.5,,162.5,,,,,,162.5,B
14,Daniel Jansson,Sweden,140,133,Open,M,Raw,,,,,,157.5,165,170,,170,,,,,,170,B
15,Per Holm,Sweden,140,136.2,Masters 3,M,Raw,,,,,,-150,-160,160,,160,,,,,,160,B
16,Tuomas Vuokkovaara,Finland,90,86.2,Open,M,Raw,,,,,,-130,130,-140,,130,,,,,,130,B
17,Lauri Palttala,Finland,82.5,79,Open,M,Raw,,,,,,110,115,-120,,115,,,,,,115,B
18,Risto Vekara,Finland,125,118.7,Open,M,Raw,,,,,,105,-115,-115,,105,,,,,,105,B
DQ,Tero Ylivinkka,Finland,125,124.2,Open,M,Raw,,,,,,-205,,,,,,,,,,,B
1,Sari Anttila,Finland,90,85,Masters 2,F,Raw,,,,,,90,100,-110,,100,,,,,,100,B
2,Oona Ylitolonen,Finland,56,55.9,Masters 2,F,Raw,,,,,,65,-70,-70,,65,,,,,,65,B
3,Veera Hiltunen,Finland,75,75,Masters 2,F,Raw,,,,,,75,-80,-80,,75,,,,,,75,B
1,Antti Jumisko,Finland,140+,159.4,Open,M,Multi-ply,,,,,,,,,,,370.5,-400,,,370.5,370.5,D
2,Matti Lehto,Finland,140,139.6,Open,M,Multi-ply,,,,,,,,,,,-315,-342.5,342.5,,342.5,342.5,D
3,Niclas Friberg,Sweden,100,96.4,Masters 1,M,Multi-ply,,,,,,,,,,,275,285,292.5,,292.5,292.5,D
4,Aki Tuulaniemi,Finland,140,127.4,Juniors,M,Multi-ply,,,,,,,,,,,255,280,-300,,280,280,D
1,Jaakko Vänttinen,Finland,100,99.1,Open,M,Raw,,,,,,,,,,,320,-337.5,,,320,320,D
2,Eduard Khanjyan,Finland,110,108.3,Open,M,Raw,,,,,,,,,,,320,-340,,,320,320,D
3,Tero Kivinen,Finland,110,104.8,Open,M,Raw,,,,,,,,,,,300,310,-320,,310,310,D
4,Daniel Jansson,Sweden,140,133,Juniors,M,Raw,,,,,,,,,,,280,300,310,,310,310,D
5,Mats Erikson,Sweden,100,90.6,Masters 4,M,Raw,,,,,,,,,,,240,260,-280,,260,260,D
6,Henri Raekallio,Finland,100,94.3,Open,M,Raw,,,,,,,,,,,250,-265,-265,,250,250,D
7,Jukka Mertaniemi,Finland,100,97.1,Open,M,Raw,,,,,,,,,,,230,240,250,,250,250,D
8,Lauri Palttala,Finland,82.5,79,Open,M,Raw,,,,,,,,,,,190,200,210,,210,210,D
9,Arto Joronen,Finland,140+,155,Masters 3,M,Raw,,,,,,,,,,,200,220,240,,240,240,D
10,Miiko Kyöttinen,Finland,90,89.9,Juniors,M,Raw,,,,,,,,,,,200,,,,200,200,D
11,Risto Vekara,Finland,125,118.7,Open,M,Raw,,,,,,,,,,,200,205,210,,210,210,D
1,Krisse Tuominen,Finland,90,89.8,Open,F,Multi-ply,,,,,,,,,,,150.5,155,160,170,160,160,D
1,Natalia Gadolin,Finland,90,89.9,Juniors,F,Raw,,,,,,,,,,,140,-170,-170,,140,140,D
