Name,Place,Division,Sex,Equipment,State,WeightClassKg,BodyweightKg,Age,Best3SquatKg,Best3BenchKg,Best3DeadliftKg,TotalKg,Event
Sarah Ritzius,1,Juniors 20-23,F,Raw,IL,48,47.17,22,87.5,55,110,252.5,SBD
Min Choi,1,Juniors 18-19,F,Raw,IL,56,55.7,18,82.5,42.5,82.5,207.5,SBD
Jessica Nicholas,1,Juniors 20-23,F,Raw,IL,67.5,60.51,21,75,47.5,115,237.5,SBD
McKenna Herald,1,Juniors 16-17,F,Raw,IL,75,74.84,17,95,50,100,245,SBD
Sarah Ritzius,1,Open,F,Raw,IL,48,47.17,22,87.5,55,110,252.5,SBD
Jessica Enriquez,1,Open,F,Raw,IL,52,51.17,28,107.5,57.5,147.5,312.5,SBD
Olivia Milton,1,Open,F,Raw,IL,56,55.25,25,72.5,50,115,237.5,SBD
Katherine Snethen,1,Open,F,Raw,IN,67.5,62.6,23,92.5,47.5,100,240,SBD
Kristi Meyer,1,Open,F,Raw,IL,75,71.49,24,145,80,165,390,SBD
Karin McDowell,1,Submasters 35-39,F,Raw,IL,82.5,81.19,36,117.5,57.5,137.5,312.5,SBD
Cael Sanders,1,Juniors 13-15,M,Raw,IL,60,58.06,14,87.5,67.5,120,275,SBD
Cameron Waldrep,1,Juniors 13-15,M,Raw,IA,82.5,80.97,14,130,97.5,155,382.5,SBD
Ryan Weintraub,1,Juniors 20-23,M,Raw,IL,82.5,81.42,20,235,147.5,275,657.5,SBD
Daniel Thiel,1,Open,M,Raw,IL,75,73.03,29,217.5,120,260,597.5,SBD
Thomas Robertson-Truong,2,Open,M,Raw,IL,75,74.16,27,145,87.5,207.5,440,SBD
Leo Kim,1,Open,M,Raw,IL,82.5,81.19,24,195,132.5,240,567.5,SBD
Anthony Rodriguez Jr,1,Open,M,Raw,IL,90,88.22,24,227.5,155,242.5,625,SBD
James Goodwin,2,Open,M,Raw,IN,90,89.13,32,197.5,120,200,517.5,SBD
Rodney Myers,1,Submasters 35-39,M,Raw,IL,90,89.81,37,162.5,85,207.5,455,SBD
Erin Luers,1,Juniors 18-19,F,Wraps,MO,60,59.78,19,111,45,95,251,SBD
Tisha Timan,1,Open,F,Wraps,IL,56,55.79,37,105,62.5,120,287.5,SBD
Erin Luers,1,Open,F,Wraps,MO,60,59.78,19,111,45,95,251,SBD
Theresa Johnson,1,Open,F,Wraps,IL,75,72.3,27,127.5,60,145,332.5,SBD
Tisha Timan,1,Submasters 35-39,F,Wraps,IL,56,55.79,37,105,62.5,120,287.5,SBD
Ryan Walls,1,Juniors 13-15,M,Wraps,IL,75,74.16,14,125,70,137.5,332.5,SBD
Aaron Mitchell,1,Juniors 20-23,M,Wraps,IL,90,89.36,22,260,145,297.5,702.5,SBD
Dakota Meyers,1,Juniors 16-17,M,Wraps,IL,125,119.29,16,187.5,102.5,185,475,SBD
Scott Kish,1,Juniors 20-23,M,Wraps,IL,125,119.52,23,162.5,152.5,207.5,522.5,SBD
Mariodez,1,Open,M,Wraps,IL,82.5,80.51,26,250,147.5,255,652.5,SBD
Joshua Hearren,1,Open,M,Wraps,IL,100,98.2,37,227.5,167.5,250,645,SBD
Jon Effinger,2,Open,M,Wraps,IN,100,98.2,34,205,170,242.5,617.5,SBD
Trace Walls,DQ,Open,M,Wraps,IL,110,108.41,41,290,197.5,-250,,SBD
Andy Most,1,Open,M,Wraps,IL,125,123.6,26,317.5,185,302.5,805,SBD
Link Burchett,2,Open,M,Wraps,IL,125,124.51,26,300,192.5,215,707.5,SBD
Damien Domer,3,Open,M,Wraps,IL,125,119.29,36,227.5,180,272.5,680,SBD
Ryan Clark,4,Open,M,Wraps,IN,125,122.24,39,265,167.5,205,637.5,SBD
Joshua Hearren,1,Submasters 35-39,M,Wraps,IL,100,98.2,37,227.5,167.5,250,645,SBD
Ryan Clark,1,Submasters 35-39,M,Wraps,IN,125,122.24,39,265,167.5,205,637.5,SBD
Jim Bell,1,Masters 55-59,M,Wraps,MO,100,99.56,59,231,105,217.5,553.5,SBD
Jimmy Terrell,1,Masters 40-44,M,Wraps,IL,110,107.73,43,227.5,142.5,220,590,SBD
Trace Walls,DQ,Masters 40-44,M,Wraps,IL,110,108.41,41,290,197.5,-250,,SBD
Chuck Trosper,1,Masters 55-59,M,Wraps,MO,140,135.85,55,187.5,142.5,237.5,567.5,SBD
Mark Slivinski,1,Open,M,Single-ply,MO,110,107.05,49,337.5,227.5,277.5,842.5,SBD
Jay Brueggeman,2,Open,M,Single-ply,MO,110,108.41,34,235,167.5,227.5,630,SBD
Luke Deitz,1,Open,M,Single-ply,MO,125,124.51,28,265,172.5,237.5,675,SBD
Mark Alexander,1,Masters 50-54,M,Single-ply,MO,100,97.07,50,210,127.5,210,547.5,SBD
Mark Slivinski,1,Masters 45-49,M,Single-ply,MO,110,107.05,49,337.5,227.5,277.5,842.5,SBD
Jacquie Baker,1,Juniors 20-23,F,Raw,IL,75,71.49,20,,75,,75,B
Katie Verplaetse,1,Juniors 16-17,F,Raw,IL,82.5,81.74,16,,62.5,,62.5,B
Christine Dennison,1,Open,F,Raw,MO,90,89.81,44,,92.5,,92.5,B
Christine Dennison,1,Masters 40-44,F,Raw,MO,90,89.81,44,,92.5,,92.5,B
Sandra Foli,1,Masters 70-74,F,Raw,IL,90+,109.95,74,,35,,35,B
Josh Kosier,1,Juniors 20-23,M,Raw,IL,100,98.88,22,,182.5,,182.5,B
Jake Pooley,2,Juniors 20-23,M,Raw,IL,100,96.84,22,,152.5,,152.5,B
Austin Curtis,1,Open,M,Raw,IL,110,106.82,33,,190,,190,B
Michael Randall,DQ,Open,M,Single-ply,IL,90,89.36,29,,-275,,,B
Vincent Miles,DQ,Open,M,Single-ply,IL,90,89.13,24,,-245,,,B
Richard Kelly,1,Masters 60-64,M,Single-ply,IL,100,99.79,60,,182.5,,182.5,B
Mike Smothers,DQ,Masters 45-49,M,Single-ply,IL,110,107.73,49,,-277.5,,,B
Roger Ryan,1,Masters 55-59,M,Single-ply,IL,140+,140.61,58,,327.5,,327.5,B
Katie Verplaetse,1,Juniors 16-17,F,Raw,IL,82.5,81.74,16,,,127.5,127.5,D
Sandra Foli,1,Masters 70-74,F,Raw,IL,90+,109.95,74,,,87.5,87.5,D
Hunter Luyando,1,Juniors 13-15,M,Raw,IL,52,49.44,9,,,75,75,D
Brad Southern,1,Open,M,Raw,IL,110,107.5,33,,,302.5,302.5,D
Rob Luyando,1,Open,M,Raw,IL,140,135.17,44,,,287.5,287.5,D
Bob Hochstein,1,Masters 65-69,M,Raw,IL,90,87.27,67,,,220,220,D
Nick Frazzetta,1,Masters 50-54,M,Raw,IL,125,120.2,51,,,257.5,257.5,D
Rob Luyando,1,Masters 40-44,M,Raw,IL,140,135.17,44,,,287.5,287.5,D
