﻿22-23.09.2018;GPC World Championship - RAW Benchpress -Kg Results;;;;;;;;;;;;;
Name;Age;Div;BWt (Kg);WtCls (Kg);Reshel;Bench 1;Bench 2;Bench 3;Bench 4;Best Bench;Coeff Score;Age  & Coeff;Pl-Div-WtCl;Team
Dr. UJVÁRI Ernőné;68;FM6;67,1;67,5;1,6454;45;50;52,5;;52,5;86,3835;136,140396;1-FM6-67,5;HUNGARY
BESKOVA Dana;63;FM5;55,7;56;1,9158;-35;35;40;;40;76,632;108,894072;1-FM5-56;CZECH Republic
KNUUTILA Virpi-Sisko;51;FM3;88,1;90;1,4322;120;130;135;-140;135;193,347;221,769009;1-FM3-90;FINLAND
HORLYCK Stephanie;52;FM3;96,7;110;1,3808;67,5;72,5;77,5;80;77,5;107,012;124,66898;1-FM3-110;AUSTRALIA
PUZIO Krystyna;53;FM3;93,2;110;1,4018;60;65;-72,5;;65;91,117;107,882528;2-FM3-110;POLAND
BIES Johanna;46;FM2;59,1;60;1,8054;105;115;-120;;115;207,621;221,739228;1-FM2-60;FINLAND
EGRI Ilona;45;FM2;56,5;60;1,887;60;62,5;-65;;62,5;117,9375;124,4240625;2-FM2-60;HUNGARY
KÁRPÁTI Beáta;45;FM2;60,6;67,5;1,7674;55;57,5;-60;;57,5;101,6255;107,2149025;1-FM2-67,5;HUNGARY
KOWALSKA Beata;45;FM2;73,4;75;1,5622;65;70;75;;75;117,165;123,609075;1-FM2-75;POLAND
KOCZKÁS Éva;47;FM2;80,9;82,5;1,4888;105;110;-112,5;;110;163,768;177,196976;1-FM2-82,5;HUNGARY
SZLÁVIK Anna;45;FM2;81,8;82,5;1,4806;70;75;-80;;75;111,045;117,152475;2-FM2-82,5;HUNGARY
SZABÓ Ildikó;47;FM2;97,3;110;1,3772;55;65;-66;;65;89,518;96,858476;1-FM2-110;HUNGARY
PAPP Ágnes;40;FM1;47,2;48;2,3726;40;45;-47,5;;45;106,767;106,767;1-FM1-48;HUNGARY
RÉKASINÉ Gőz Erika;42;FM1;54,7;56;1,9546;57,5;60;62,5;;62,5;122,1625;124,60575;1-FM1-56;HUNGARY
HOLLÓNÉ Ruba Mónika;41;FM1;69,1;75;1,6168;57,5;60;62,5;;62,5;101,05;102,0605;1-FM1-75;HUNGARY
DANYI Veronika;41;FM1;73,4;75;1,5622;40;42,5;45;;45;70,299;71,00199;2-FM1-75;HUNGARY
FÁBIÁN Mihályné;41;FM1;119,7;SHW;1,3052;50;55;60;;60;78,312;79,09512;1-FM1-SHW;HUNGARY
SCHOPF Dóra;44;FO;50,3;52;2,1712;75;80;82,5;;82,5;179,124;186,826332;1-FO-52;HUNGARY
MEZEI Katalin;39;FO;51;52;2,132;65;70;-75;;70;149,24;149,24;2-FO-52;HUNGARY
TORRES Vanessa;31;FO;56;56;1,905;95;-101;-101;101;95;180,975;180,975;1-FO-56;FINLAND
HALAS-KORALEWSKA Malgorzata;31;FO;60;60;1,783;115;120;123;125;123;219,309;219,309;1-FO-60;POLAND
CHETTIBI Fathia;28;FO;57,6;60;1,8492;85;90;-92,5;;90;166,428;166,428;2-FO-60;FRANCE
SZTRUNGA Ildikó;39;FO;57,7;60;1,8464;42,5;-45;45;;45;83,088;83,088;3-FO-60;HUNGARY
NAGY Rita;44;FO;65,9;67,5;1,6656;125;130;-132,5;-132,5;130;216,528;225,838704;1-FO-67,5;HUNGARY
MALOTT Rachel;26;FO;73,3;75;1,5634;95;-100;-100;;95;148,523;148,523;1-FO-75;USA
HARTIO Marianne;25;FO;70,7;75;1,5956;-90;90;-92,5;;90;143,604;143,604;2-FO-75;FINLAND
MAGULOVA Tatiana;37;FO;73,6;75;1,5598;80;85;-90;;85;132,583;132,583;3-FO-75;SLOVAK Republic
BERTOTTO Maria Leticia;47;FO;88,6;90;1,4286;128;133;-135;;133;190,0038;205,5841116;1-FO-90;ARGENTINA
KRISZTINNÉ Tóth Mariann;39;FO;88,6;90;1,4286;65;-67,5;67,5;;67,5;96,4305;96,4305;2-FO-90;HUNGARY
BIRÓ Beatrix;21;FJ;59,3;60;1,8002;92,5;-97,5;-97,5;;92,5;166,5185;169,84887;1-FJ-60;HUNGARY
MOLNÁR Anikó;18;FT3;51;52;2,132;40;42,5;-45;;42,5;90,61;96,0466;1-FT3-52;HUNGARY
MOLDOVÁNYI Mercédesz;18;FT3;54,5;56;1,963;52,5;55;57,5;;57,5;112,8725;119,64485;1-FT3-56;HUNGARY
FARKAS Krisztina;19;FT3;65;67,5;1,681;65;70;75;77,5;75;126,075;131,118;1-FT3-67,5;HUNGARY
BELME Nelli;16;FT2;59,8;60;1,7878;30;35;-37,5;;35;62,573;70,70749;1-FT2-60;HUNGARY
MATYSIAK Olga;15;FT1;49,2;52;2,2346;-35;35;-40;;35;78,211;92,28898;1-FT1-52;POLAND
BODNÁR Klaudia;14;FT1;51,3;52;2,1158;25;27,5;-30;;27,5;58,1845;71,566935;2-FT1-52;HUNGARY
TOMILOV Elizabet;15;FT1;55,2;56;1,9344;47,5;50;52,5;54;52,5;101,556;119,83608;1-FT1-56;ISRAEL
BELME Barbara;13;FT1;79,5;82,5;1,501;30;35;-40;;35;52,535;67,2448;1-FT1-82,5;HUNGARY
DISABLED competitors;;;;;;;;;;;;;;
KLEISZ György;44;MM1;107,2;110;0,892;145;155;-160;;155;138,26;144,20518;1-MM1-110;HUNGARY
CAHILL Shane;34;MO;66;67,5;1,268;90;97,5;105;;105;133,14;133,14;1-MO-67,5;IRELAND
GALYAS-LAKATOS Ákos;37;MO;103,3;110;0,9038;115;120;-125;;120;108,456;108,456;1-MO-110;HUNGARY
GALAMBOS Gábor;34;MO;102;110;0,908;80;85;90;;90;81,72;81,72;2-MO-110;HUNGARY
HAJAS Norbert;46;MM2;74,7;75;1,1208;150;160;-167,5;;160;179,328;191,522304;1-MM2-75;HUNGARY
;;;;;;;;;;;;;;
Name;Age;Div;BWt (Kg);WtCls (Kg);Reshel;Bench 1;Bench 2;Bench 3;Bench 4;Best Bench;Coeff Score;Age  & Coeff;Pl-Div-WtCl;Team
DRUCKER Robert;81;MM9;81,5;82,5;1,039;90;100;-102,5;;100;103,9;212,995;1-MM9-82,5;FRANCE
RUBIN Grigori;82;MM9;76,3;82,5;1,0992;87,5;92,5;95;;95;104,424;214,0692;2-MM9-82,5;ISREAL
FONYÓDI György;75;MM8;66,7;67,5;1,253;65;70;-72,5;;70;87,71;160,94785;1-MM8-67,5;HUNGARY
RÉZ István;75;MM8;71,5;75;1,17;100;-105;0;;100;117;214,695;1-MM8-75;HUNGARY
BARANYAI József;78;MM8;77,6;82,5;1,0828;90;97,5;-103;;97,5;105,573;207,028653;1-MM8-82,5;HUNGARY
CONTI Rudolf;73;MM7;72,2;75;1,1588;95;-102,5;102,5;;102,5;118,777;208,572412;1-MM7-75;HUNGARY
Dr. UJVÁRI Ernő  ;70;MM7;81,6;82,5;1,0378;100;105;-110;;105;108,969;179,254005;1-MM7-82,5;HUNGARY
LAISIN Boriss;68;MM6;70,2;75;1,1908;105;107,5;110;;110;130,988;206,437088;1-MM6-75;ISRAEL
SULIME Joannis;67;MM6;73,5;75;1,139;105;110;-115;;110;125,29;193,32247;2-MM6-75;FRANCE
VEREBI István;67;MM6;74;75;1,132;105;110;-115;;110;124,52;192,13436;3-MM6-75;HUNGARY
SLIWINSKI Ryszard;68;MM6;74;75;1,132;70;-75;0;;70;79,24;124,88224;4-MM6-75;POLAND
HEALY Bill;68;MM6;81,8;82,5;1,0356;130;135;-142,5;;135;139,806;220,334256;1-MM6-82,5;IRELAND
MÜLLER Gerd;66;MM6;81,9;82,5;1,0348;120;125;-130;;125;129,35;195,44785;2-MM6-82,5;GERMANY
TELEKI Gábor;65;MM6;80,6;82,5;1,0472;80;-90;100;;100;104,72;154,9856;3-MM6-82,5;HUNGARY
TÓTH István;62;MM5;58,6;60;1,4744;107,5;110;-122,5;;110;162,184;225,922312;1-MM5-60;HUNGARY
ZIA Mirza;61;MM5;66,4;67,5;1,2594;95;105;110;;110;138,534;189,237444;1-MM5-67,5;GREAT-BRITAIN
KALINSKI Antoni;64;MM5;67;67,5;1,246;92,5;97,5;100;;100;124,6;180,67;2-MM5-67,5;POLAND
GODA Gábor;63;MM5;73,7;75;1,1366;-115;115;126,5;;126,5;143,7799;204,3112379;1-MM5-75;HUNGARY
KOPER Zbigniew;64;MM5;74,5;75;1,124;95;102,5;105;;105;118,02;171,129;2-MM5-75;POLAND
MIECZYSLAW Maczka;64;MM5;81,9;82,5;1,0348;-100;102,5;112,5;;112,5;116,415;168,80175;1-MM5-82,5;GERMANY
JAUHOJARVI Tahvo;57;MM4;67,2;67,5;1,2428;115;-122,5;-122,5;;115;142,922;181,225096;1-MM4-67,5;SWEDEN
URBANIAK Miroslaw;57;MM4;81,5;82,5;1,039;130;140;-145;;140;145,46;184,44328;1-MM4-82,5;POLAND
LEYER Gyula;58;MM4;81,5;82,5;1,039;110;120;-125;;120;124,68;160,96188;2-MM4-82,5;HUNGARY
VARGA Ernő;53;MM3;71;75;1,178;125;130;-132,5;;130;153,14;181,31776;1-MM3-75;HUNGARY
BOREIKO Valery;53;MM3;73,1;75;1,1454;95;110;-115;;110;125,994;149,176896;2-MM3-75;ISRAEL
JANTEK László;52;MM3;81,2;82,5;1,0416;150;160;-165;;160;166,656;194,15424;1-MM3-82,5;HUNGARY
SINKA István;50;MM3;81,2;82,5;1,0416;120;125;-127,5;;125;130,2;147,126;2-MM3-82,5;HUNGARY
KARLIK Zsolt;46;MM2;74,5;75;1,124;155;160;-165,5;;160;179,84;192,06912;1-MM2-75;HUNGARY
STAMENKOVSKI Boshko;47;MM2;73,6;75;1,1378;130;135;-140;;135;153,603;166,198446;2-MM2-75;MACEDONIA
KOROM Dezső id;47;MM2;79,8;82,5;1,0564;155;162,5;170;;170;179,588;194,314216;1-MM2-82,5;HUNGARY
HEIDINGER Zoltán;41;MM1;59,5;60;1,442;85;90;95;;95;136,99;138,3599;1-MM1-60;HUNGARY
TÓTH János;44;MM1;57,5;60;1,518;80;87,5;-95;;87,5;132,825;138,536475;2-MM1-60;HUNGARY
RÉPÁS István;41;MM1;66,4;67,5;1,2594;130;135;140;;140;176,316;178,07916;1-MM1-67,5;HUNGARY
UNGAI János;42;MM1;66,7;67,5;1,253;122,5;132,5;-137,5;;132,5;166,0225;169,34295;2-MM1-67,5;HUNGARY
DOROGI István;43;MM1;61,4;67,5;1,3798;110;120;125;;125;172,475;177,821725;3-MM1-67,5;HUNGARY
KIWACKI Wieslaw;41;MM1;73,9;75;1,1336;130;135;140;;140;158,704;160,29104;1-MM1-75;POLAND
STANKOVIC Ivan;44;MM1;74,6;75;1,1224;130;-137,5;-137,5;;130;145,912;152,186216;2-MM1-75;SERBIA
CSEH Lajos;44;MM1;82,2;82,5;1,0316;167,5;172,5;177,5;-185,5;177,5;183,109;190,982687;1-MM1-82,5;HUNGARY
GLOVACKY Pavol;41;MM1;80,5;82,5;1,048;125;135;142,5;;142,5;149,34;150,8334;2-MM1-82,5;SLOVAK Republic
DUNNE Edward;40;MM1;82;82,5;1,034;-170;-170;-172,5;;0;0;0;0;IRELAND
BONCZ Gábor;27;MO;57,9;60;1,5006;85;90;95;;95;142,557;142,557;1-MO-60;HUNGARY
KALAICHEV Ianis;33;MO;60,5;67,5;1,405;150;160;162,5;;162,5;228,3125;228,3125;1-MO-67,5;RUSSIA
PISZÁK Péter;41;MO;74,3;75;1,1272;180;192,5;197,5;200;197,5;222,622;224,84822;1-MO-75;HUNGARY
HOLECEK Zdenek;30;MO;74,1;75;1,1304;155;162,5;165;;165;186,516;186,516;2-MO-75;CZECH Republic
SUSZTER Máté;31;MO;74,1;75;1,1304;150;155;160;;160;180,864;180,864;3-MO-75;HUNGARY
MARINKOVICH Martin;26;MO;73,3;75;1,1422;150;-155;157,5;;157,5;179,8965;179,8965;4-MO-75;HUNGARY
RYSAVY Tomas;27;MO;81,2;82,5;1,0416;190;202,5;-207,5;;202,5;210,924;210,924;1-MO-82,5;SLOVAK Republic
GREGA Jozef;24;MO;82;82,5;1,034;180;190;-195;;190;196,46;196,46;2-MO-82,5;SLOVAK Republic
MESTER István;26;MO;80,7;82,5;1,0464;-180;-185;185;;185;193,584;193,584;3-MO-82,5;HUNGARY
GEMBICZKI Attila;31;MO;82,2;82,5;1,0316;-180;185;-192,5;;185;190,846;190,846;4-MO-82,5;HUNGARY
MÁK Zsolt;25;MO;79,9;82,5;1,0552;175;182,5;-192,5;;182,5;192,574;192,574;5-MO-82,5;HUNGARY
BEZERRA DA SILVA Cicero;36;MO;82;82,5;1,034;175;182,5;-187,5;;182,5;188,705;188,705;6-MO-82,5;BRASIL
NAGY Ákos;25;MO;80,6;82,5;1,0472;170;175;-180;;175;183,26;183,26;7-MO-82,5;HUNGARY
MOLNÁR Gábor;25;MO;81,6;82,5;1,0378;170;175;-180;;175;181,615;181,615;8-MO-82,5;HUNGARY
OTAVIANO Hilton Mazzaro;28;MO;80,5;82,5;1,048;160;165;-170;;165;172,92;172,92;9-MO-82,5;BRASIL
CÉRNA László;25;MO;81,2;82,5;1,0416;160;-170;0;;160;166,656;166,656;10-MO-82,5;HUNGARY
CHMELA Lukas;36;MO;80,9;82,5;1,0448;145;155;-160;;155;161,944;161,944;11-MO-82,5;CZECH Republic
NEMETH Jared;27;MO;76,8;82,5;1,0924;140;150;-155;;150;163,86;163,86;12-MO-82,5;CANADA
WIECZOREK Krzysztof Mariusz;39;MO;76,3;82,5;1,0992;120;125;-130;;125;137,4;137,4;13-MO-82,5;POLAND
ORBÁN Dezső;21;MJ;57,8;60;1,5042;102,5;107,5;112,5;;112,5;169,2225;172,60695;1-MJ-60;HUNGARY
ÖKRÖS Dániel;23;MJ;66,6;67,5;1,255;120;130;-140;;130;163,15;163,15;1-MJ-67,5;HUNGARY
KRIZSÁN Mihály;23;MJ;75;75;1,117;130;135;-140;;135;150,795;150,795;1-MJ-75;HUNGARY
NAGY Miklós Nándor;21;MJ;80,3;82,5;1,0504;145;152,5;-160;;152,5;160,186;163,38972;1-MJ-82,5;HUNGARY
PUPOS Csaba;20;MJ;77,8;82,5;1,0804;137,5;140;142,5;;142,5;153,957;158,57571;2-MJ-82,5;HUNGARY
CSURGAI Viktor;23;MJ;79,1;82,5;1,0648;135;137,5;142,5;;142,5;151,734;151,734;3-MJ-82,5;HUNGARY
ARGALAS Dusan;21;MJ;78,7;82,5;1,0696;110;120;-135;;120;128,352;130,91904;4-MJ-82,5;SLOVAK Republic
PÉTER Csaba;18;MT3;69,5;75;1,202;110;120;122,5;;122,5;147,245;156,0797;1-MT3-75;SLOVAK Republic
HORVÁTH Benedek;18;MT3;69,7;75;1,1988;60;-70;-70;;60;71,928;76,24368;2-MT3-75;HUNGARY
WASILKIEWICZ Dominik;18;MT3;82,5;82,5;1,029;95;-100;-100;;95;97,755;103,6203;1-MT3-82,5;POLAND
VARJAS Richárd;16;MT2;63,4;67,5;1,3248;75;85;-87,5;;85;112,608;127,24704;1-MT2-67,5;HUNGARY
GYURICSKA István ifj;17;MT2;78,2;82,5;1,0756;135;140;145;;145;155,962;168,43896;1-MT2-82,5;HUNGARY
SEVCIK Matej;16;MT2;77,9;82,5;1,0792;125;-135;135;;135;145,692;164,63196;2-MT2-82,5;SLOVAK Republic
JAROSZ Dorian;13;MT1;52,6;56;1,782;-45;-45;-45;;0;0;0;0;POLAND
HORAK David;15;MT1;64,5;67,5;1,3;65;72,5;-75;;72,5;94,25;111,215;1-MT1-67,5;CZECH Republic
DEME Krisztián;15;MT1;69,2;75;1,2068;105;115;120;;120;144,816;170,88288;1-MT1-75;SLOVAK Republic
BALÁZS Ferenc ifj;15;MT1;74,3;75;1,1272;65;72,5;-77,5;;72,5;81,722;96,43196;2-MT1-75;HUNGARY
;;;;;;;;;;;;;;
;;;;;;;;;;;;;;
Name;Age;Div;BWt (Kg);WtCls (Kg);Reshel;Bench 1;Bench 2;Bench 3;Bench 4;Best Bench;Coeff Score;Age  & Coeff;Pl-Div-WtCl;Team
KASZA László;77;MM8;89,1;90;0,9752;110;120;130;;130;126,776;243,156368;1-MM8-90;HUNGARY
BOLGÁRFALVI Béla;75;MM8;85,6;90;1,0012;90;100;-110;;100;100,12;183,7202;2-MM8-90;HUNGARY
ÉLŐ Imre;75;MM8;90,6;100;0,9642;85;92,5;100;;100;96,42;176,93;1-MM8-100;HUNGARY
JOBBÁGY László;71;MM7;83,6;90;1,0182;120,5;0;0;;120,5;122,6931;206,2471011;1-MM7-90;HUNGARY
ASSI RELLI Marc;70;MM7;97,1;100;0,9266;120;130;135;-143,5;135;125,091;205,774695;1-MM7-100;FRANCE
JALOVECZKY Attila;71;MM7;90,1;100;0,9682;110;-125;-125;;110;106,502;179,029862;2-MM7-100;HUNGARY
VOLGYÁK Jozef;66;MM6;85,9;90;0,9988;120;130;-132,5;;130;129,844;196,194284;1-MM6-90;SLOVAK Republic
BUSÁK Sándor;66;MM6;88,3;90;0,9806;120;125;-130;;125;122,575;185,210825;2-MM6-90;HUNGARY
VETTER Ulrich;66;MM6;105,6;110;0,8966;140;150;-155;;150;134,49;203,21439;1-MM6-110;GERMANY
KOZMA László;61;MM5;88,6;90;0,9786;122,5;127,5;130;;130;127,218;173,779788;1-MM5-90;HUNGARY
BOGNÁR Géza;63;MM5;88,5;90;0,979;110;115;-120;;115;112,585;159,983285;2-MM5-90;HUNGARY
SOLC Jaroslav;61;MM5;98;100;0,923;135;140;145;;145;133,835;182,81861;1-MM5-100;SLOVAK Republic
WRÓBEL Wieslaw;61;MM5;98,5;100;0,921;120;-130;0;;120;110,52;150,97032;2-MM5-100;POLAND
ESZENYI István;61;MM5;107,8;110;0,89;155;162,5;167,5;;167,5;149,075;203,63645;1-MM5-110;HUNGARY
VERES Tamás;55;MM4;89,9;90;0,9694;130;137,5;142,5;;142,5;138,1395;169,2208875;1-MM4-90;HUNGARY
EWERT Hartmut;59;MM4;83,4;90;1,0202;140;-145;-145;;140;142,828;187,81882;2-MM4-90;GERMANY
SZABÓ Sándor;55;MM4;108,7;110;0,8882;160;172,5;0;;172,5;153,2145;187,6877625;1-MM4-110;HUNGARY
NAGY Imre;55;MM4;103,7;110;0,9022;-120;130;-140;;130;117,286;143,67535;2-MM4-110;HUNGARY
GYURICSKA István id;51;MM3;82,7;90;1,0266;160;170;0;;170;174,522;200,176734;1-MM3-90;HUNGARY
KISS László;50;MM3;87,9;90;0,9838;132,5;-137,5;-140;;132,5;130,3535;147,299455;2-MM3-90;HUNGARY
PAPP Ferenc;54;MM3;85,5;90;1,002;125;130;-137,5;;130;130,26;156,83304;3-MM3-90;HUNGARY
BUGYI László;54;MM3;98,1;100;0,9226;165;170;-172,5;;170;156,842;188,837768;1-MM3-100;HUNGARY
MOHÁCSI Zsolt;52;MM3;99,1;100;0,9186;160;167,5;0;;167,5;153,8655;179,2533075;2-MM3-100;HUNGARY
NÉMETH Zoltán;51;MM3;98,3;100;0,9218;140;150;-152,5;;150;138,27;158,59569;3-MM3-100;HUNGARY
LAZOK Vojtech;50;MM3;108,6;110;0,8886;175;185;190;;190;168,834;190,78242;1-MM3-110;SLOVAK Republic
TOMILOV Valery;53;MM3;103,5;110;0,903;170;180;-182,5;;180;162,54;192,44736;2-MM3-110;ISREAL
MIZERA Jaromir;53;MM3;103,9;110;0,9014;170;180;-185;;180;162,252;192,106368;3-MM3-110;CZECH Republic
HEIZER Attila;52;MM3;108,7;110;0,8882;155;160;165;;165;146,553;170,734245;4-MM3-110;HUNGARY
BLAIR Chris;53;MM3;102,5;110;0,906;155;160;0;;160;144,96;171,63264;5-MM3-110;NEW-ZEALAND
PARAGI József;48;MM2;88,8;90;0,9776;170;187,5;-192,5;;187,5;183,3;201,0801;1-MM2-90;HUNGARY
NGUYEN Tam;48;MM2;84,6;90;1,0098;150;162,5;165;;165;166,617;182,778849;2-MM2-90;SLOVAK Republic
SAJKO Frantisek;47;MM2;88,3;90;0,9806;152,5;162,5;165;;165;161,799;175,066518;3-MM2-90;SLOVAK Republic
KOVÁCS Zsolt;45;MM2;84,7;90;1,0086;150;160;-165;;160;161,376;170,25168;4-MM2-90;HUNGARY
ZAPLETAL Vladan;47;MM2;85,7;90;1,0004;-150;150;-152,5;;150;150,06;162,36492;5-MM2-90;CZECH Republic
KUKLA Péter;45;MM2;86,1;90;0,9972;122,5;130;-137,5;;130;129,636;136,76598;6-MM2-90;HUNGARY
BIRÓ Sándor;46;MM2;96,4;100;0,9298;175;-182,5;182,5;;182,5;169,6885;181,227318;1-MM2-100;HUNGARY
MARTINEZ Rico;48;MM2;95,5;100;0,934;180;-190;-190;;180;168,12;184,42764;2-MM2-100;GERMANY
TAKÁCS Péter;45;MM2;105,6;110;0,8966;190;-200;200;;200;179,32;189,1826;1-MM2-110;HUNGARY
HEGEDŰS Attila;47;MM2;107,2;110;0,892;150;170;185;;185;165,02;178,55164;2-MM2-110;HUNGARY
PADO Milan;46;MM2;109,7;110;0,8852;175;-182,5;185;;185;163,762;174,897816;3-MM2-110;SLOVAK Republic
HUBAY Jan;47;MM2;109,7;110;0,8852;145;150;-160;;150;132,78;143,66796;4-MM2-110;SLOVAK Republic
LUGASI István;46;MM2;100,3;110;0,9138;140;-160;-160;;140;127,932;136,631376;5-MM2-110;HUNGARY
SZEIFERT István;41;MM1;88,1;90;0,9822;160;167,5;175;;175;171,885;173,60385;1-MM1-90;HUNGARY
HORÁK Menyhért;44;MM1;88,2;90;0,9814;160;165;-170;;165;161,931;168,894033;2-MM1-90;HUNGARY
BOGATKOV Andrei;43;MM1;87,2;90;0,9884;155;-160;160;;160;158,144;163,046464;3-MM1-90;RUSSIA
ZBIERSKI Juliusz;44;MM1;89,2;90;0,9744;155;-160;-160;;155;151,032;157,526376;4-MM1-90;POLAND
BODNÁR Dénes;44;MM1;90;90;0,969;110;115;120;;120;116,28;121,28004;5-MM1-90;HUNGARY
ZAKRZEWSKI Krzysztof;40;MM1;99,3;100;0,9178;197,5;207,5;-213;-213;207,5;190,4435;190,4435;2-MM1-100;POLAND
HABART Jan;41;MM1;98,7;100;0,9202;200;210;-215;-215;200;193,242;195,17442;1-MM1-100;CZECH Republic
TUMA Stanislav;41;MM1;98,5;100;0,921;175;185;-190;;185;170,385;172,08885;3-MM1-100;CZECH Republic
ROSZIK István;42;MM1;98,5;100;0,921;-175;175;-185;;175;161,175;164,3985;4-MM1-100;HUNGARY
HODERMARSZKI Jan;40;MM1;107;110;0,892;190;200;205;;205;182,86;182,86;1-MM1-110;SLOVAK Republic
ENDRŐDY Attila;43;MM1;104,7;110;0,899;190;197,5;-205;;197,5;177,5525;183,0566275;2-MM1-110;HUNGARY
GÉRESI Péter;41;MM1;102,4;110;0,9064;185;195;-202,5;;195;176,748;178,51548;3-MM1-110;HUNGARY
BELME Péter;43;MM1;106,3;110;0,894;-170;170;-175;;170;151,98;156,69138;4-MM1-110;HUNGARY
HOLLÓ Tamás id;44;MM1;106;110;0,895;142,5;-145;-145;;142,5;127,5375;133,0216125;5-MM1-110;HUNGARY
VYTLACIL Ondrej;31;MO;88,3;90;0,9806;170;180;185;;185;181,411;181,411;1-MO-90;CZECH Republic
NIKOLEYCHUK Robert;36;MO;88;90;0,983;167,5;-180;-180;;167,5;164,6525;164,6525;2-MO-90;CANADA
MARTTILA Lauri;27;MO;99,3;100;0,9178;215;-222,5;0;;215;197,327;197,327;1-MO-100;FINLAND
SZUDER Károly;31;MO;99,6;100;0,9166;190;195;200;;200;183,32;183,32;2-MO-100;SLOVAK Republic
NOVAK Petr;40;MO;98,2;100;0,9222;190;197,5;-202,5;;197,5;182,1345;182,1345;3-MO-100;CZECH Republic
HRIVNAK Michal;24;MO;97,3;100;0,9258;190;-192,5;-192,5;;190;175,902;175,902;4-MO-100;SLOVAK Republic
ROZSNOKI Attila;31;MO;97,8;100;0,9238;190;-200;-200;;190;175,522;175,522;5-MO-100;HUNGARY
POZSÁR Rajmond;29;MO;93,8;100;0,9436;180;182,5;-185;;182,5;172,207;172,207;6-MO-100;HUNGARY
VIDISCAK Lubomir;31;MO;98,6;100;0,9206;160;170;-180;;170;156,502;156,502;7-MO-100;SLOVAK Republic
TWOMEY Ger;38;MO;99,9;100;0,9154;-185;-185;-185;;0;0;0;0;IRELAND
MOCSÁR Attila;38;MO;91,1;100;0,9606;-140;0;0;;0;0;0;0;HUNGARY
KUZEL Vlastimil;40;MO;108,1;110;0,8896;230;240;-250;;240;213,504;213,504;1-MO-110;CZECH Republic
MÉSZÁROS Dávid;25;MO;109;110;0,887;212,5;222,5;227,5;;227,5;201,7925;201,7925;2-MO-110;HUNGARY
OLÁH Ákos;29;MO;104,4;110;0,8994;210;220;225;;225;202,365;202,365;3-MO-110;HUNGARY
KARCSÁK Attila;37;MO;108,9;110;0,8874;207,5;217,5;225;;225;199,665;199,665;4-MO-110;HUNGARY
VUJOVIC Marko;36;MO;108,8;110;0,8878;210;215;222,5;;222,5;197,5355;197,5355;5-MO-110;SERBIA
SZONDI Csaba;31;MO;109,8;110;0,885;190;200;207,5;;207,5;183,6375;183,6375;6-MO-110;HUNGARY
FORGÁCS Péter;29;MO;109;110;0,887;190;200;205;;205;181,835;181,835;7-MO-110;HUNGARY
RUSNAK Erik;34;MO;101,5;110;0,909;185;-192,5;-192,5;;185;168,165;168,165;8-MO-110;SLOVAK Republic
NAGY László;38;MO;101,9;110;0,9084;175;185;-190;;185;168,054;168,054;9-MO-110;HUNGARY
NÉMETH Richárd;24;MO;103,9;110;0,9014;180;-190;-190;;180;162,252;162,252;10-MO-110;HUNGARY
ZARNOWSKI Daniel;37;MO;108,6;110;0,8886;160;170;172,5;;172,5;153,2835;153,2835;11-MO-110;POLAND
SVANCZAR Róbert;33;MO;105,8;110;0,8958;-195;0;0;;0;0;0;0;SLOVAK Republic
VASZILKÓ Sándor;36;MO;108,5;110;0,889;0;0;0;;0;0;0;0;HUNGARY
KOROM Dezső ifj;21;MJ;89,3;90;0,9736;185;195;-200;;195;189,852;193,64904;1-MJ-90;HUNGARY
VIRTANEN Jani;23;MJ;99,1;100;0,9186;190;-197,5;-197,5;;190;174,534;174,534;1-MJ-100;FINLAND
SOBEK Adam;23;MJ;97,1;100;0,9266;155;-165;170;;170;157,522;157,522;2-MJ-100;SLOVAK Republic
MOSZKÁL Ádám;22;MJ;102,5;110;0,906;205;-210;210;;210;190,26;192,1626;1-MJ-110;HUNGARY
MOCKOR Stanislav;22;MJ;108,4;110;0,889;200;205;-210;;205;182,245;184,06745;2-MJ-110;SLOVAK Republic
GÁLEG Norbert;22;MJ;105,6;110;0,8966;190;200;-205;;200;179,32;181,1132;3-MJ-110;HUNGARY
OZUN Michael;20;MJ;108,8;110;0,8878;125;-150;-150;;125;110,975;114,30425;4-MJ-110;IRELAND
VERES Valentin;19;MT3;89,2;90;0,9744;120;125;130;;130;126,672;131,73888;1-MT3-90;HUNGARY
BOKROS Juraj;19;MT3;88,5;90;0,979;120;-130;-130;;120;117,48;122,1792;2-MT3-90;SLOVAK Republic
PUPOS Krisztián;18;MT3;85;90;1,006;110;117,5;-122,5;;117,5;118,205;125,2973;3-MT3-90;HUNGARY
SYROVATKA Matej;19;MT3;93,4;100;0,9458;180;190;200;-205;200;189,16;196,7264;1-MT3-100;CZECH Republic
HOLLÓ Tamás ifj;18;MT3;96,7;100;0,9282;-140;140;-142,5;;140;129,948;137,74488;2-MT3-100;HUNGARY
HORVÁTH Mihály;19;MT3;107,9;110;0,89;190;-203;-203;;190;169,1;175,864;1-MT3-110;HUNGARY
KOVANIC Vit;18;MT3;107,1;110;0,892;145;155;162,5;;162,5;144,95;153,647;2-MT3-110;CZECH Republic
GALO Adrián;16;MT2;87;90;0,99;95;105;-112,5;;105;103,95;117,4635;1-MT2-90;SLOVAK Republic
MATA Ferenc;17;MT2;93,4;100;0,9458;135;-142,5;-145;;135;127,683;137,89764;1-MT2-100;HUNGARY
;;;;;;;;;;;;;;
Name;Age;Div;BWt (Kg);WtCls (Kg);Reshel;Bench 1;Bench 2;Bench 3;Bench 4;Best Bench;Coeff Score;Age  & Coeff;Pl-Div-WtCl;Team
GERÉD Gyárfás;65;MM6;118;125;0,867;120;0;0;;120;104,04;153,9792;1-MM6-125;HUNGARY
VRBINIAK Július;62;MM5;110,3;125;0,8838;-140;140;-155;;140;123,732;172,358676;1-MM5-125;SLOVENIA
NAGY Béla;58;MM4;114,7;125;0,873;155;160;0;;160;139,68;180,32688;1-MM4-125;HUNGARY
KOVÁCS Pál;56;MM4;131,8;140;0,849;130;140;-145;;140;118,86;148,09956;1-MM4-140;HUNGARY
PILLER Zsolt;50;MM3;116,7;125;0,8692;180;190;-197,5;;190;165,148;186,61724;1-MM3-125;HUNGARY
MOLNÁR Csaba;54;MM3;124,2;125;0,859;182,5;-192,5;-192,5;;182,5;156,7675;188,74807;2-MM3-125;HUNGARY
CAMPOS Carlos;53;MM3;112;125;0,879;135;145;155;;155;136,245;161,31408;3-MM3-125;ARGENTINA
OROSZ Jan;54;MM3;133,6;140;0,847;180;0;0;;180;152,46;183,56184;1-MM3-140;SLOVAK Republic
PFEIFENRÓTH Tamás;45;MM2;113,6;125;0,8756;190;195;-200;;195;170,742;180,13281;1-MM2-125;HUNGARY
BARTALOS Tamás;45;MM2;119,6;125;0,8646;185;190;-202,5;;190;164,274;173,30907;2-MM2-125;HUNGARY
SZABÓ Tamás;47;MM2;123,8;125;0,859;180;-190;-190;;180;154,62;167,29884;3-MM2-125;HUNGARY
FARKAS Mátyás;49;MM2;130,1;140;0,851;220;-230;230;;230;195,73;217,84749;1-MM2-140;HUNGARY
SUSZTAY Erik;46;MM2;138,4;140;0,842;215;225;-230;;225;189,45;202,3326;2-MM2-140;SLOVAK Republic
SZMOLÁR Tibor;46;MM2;125,4;140;0,857;130;140;145;;145;124,265;132,71502;3-MM2-140;HUNGARY
FÜRJES Ludovit;45;MM2;125,9;140;0,857;140;-145;-147,5;;140;119,98;126,5789;4-MM2-140;SLOVAK Republic
SZABÓ Ozor;46;MM2;190,2;SHW;0;160;170;0;;170;0;0;1-MM2-SHW;HUNGARY
SEBŐK András;41;MM1;120,2;125;0,864;200;210;-220;;210;181,44;183,2544;1-MM1-125;HUNGARY
NAGY Richárd;44;MM1;116,2;125;0,8702;180;187,5;0;;187,5;163,1625;170,1784875;2-MM1-125;HUNGARY
GHELIJ Abdollah;41;MM1;122,9;125;0,86;160;170;175;;175;150,5;152,005;3-MM1-125;IRAN
VÁSÁRHELYI Zoltán;42;MM1;111,3;125;0,881;170;-180;-180;;170;149,77;152,7654;4-MM1-125;HUNGARY
VÉGSŐ László;41;MM1;135;140;0,846;-205;210;-217,5;;210;177,66;179,4366;1-MM1-140;HUNGARY
SOM Ferenc;43;MM1;129,2;140;0,8522;190;200;-215;;200;170,44;175,72364;2-MM1-140;HUNGARY
PUPOS Attila;41;MM1;125,3;140;0,857;167,5;172,5;-180;;172,5;147,8325;149,310825;3-MM1-140;HUNGARY
SZABÓ Zsolt Viktor;42;MM1;132,2;140;0,849;0;0;0;;0;0;0;0;HUNGARY
LEITIS Mareks;41;MM1;141;SHW;0,839;220;232,5;236;;236;198,004;199,98404;1-MM1-SHW;LATVIA
KAROSÁN Krisztián;24;MO;124,4;125;0,8584;-225;235;242,5;;242,5;208,162;208,162;1-MO-125;HUNGARY
KAZEMI Hamid Reza;31;MO;124,4;125;0,8584;220;235;240;;240;206,016;206,016;2-MO-125;IRAN
OROSZ László;29;MO;112,8;125;0,8778;230;-235;-237,5;;230;201,894;201,894;3-MO-125;HUNGARY
STÉGERMÁJER Zoltán;26;MO;114,8;125;0,873;230;-240;-240;;230;200,79;200,79;4-MO-125;HUNGARY
HOSIO Petteri;39;MO;118,5;125;0,866;210;220;-232,5;;220;190,52;190,52;5-MO-125;FINLAND
BESSENYEI Norbert;35;MO;119;125;0,866;200;215;220;;220;190,52;190,52;6-MO-125;HUNGARY
STRUHÁR Slavomir;26;MO;124,9;125;0,858;205;212,5;217,5;;217,5;186,615;186,615;7-MO-125;SLOVAK Republic
VECERA Zdenek;28;MO;115,1;125;0,8726;200;-210;0;;200;174,52;174,52;8-MO-125;CZECH Republic
JAHNEL Michel;26;MO;124,3;125;0,8588;162,5;170;-175;;170;145,996;145,996;9-MO-125;GERMANY
AKBARIZADEH Saeid;36;MO;138,9;140;0,8414;220;240;-250;;240;201,936;201,936;1-MO-140;IRAN
BULJÁKI Károly;25;MO;128,5;140;0,853;190;202,5;207,5;;207,5;176,9975;176,9975;2-MO-140;HUNGARY
BÁLINT Ferenc;27;MO;126,9;140;0,8554;192,5;200;205;;205;175,357;175,357;3-MO-140;HUNGARY
JAVAD Mafi;39;MO;141,9;SHW;0,8384;230;-242,5;0;;230;192,832;192,832;1-MO-SHW;IRAN
DARAZ Jozef;32;MO;152,2;SHW;0,829;190;195;-200;;195;161,655;161,655;2-MO-SHW;SLOVAK Republic
AGNEW Tim;31;MO;153,2;SHW;0,828;135;152,5;-157,5;;152,5;126,27;126,27;3-MO-SHW;CANADA
FARKAS Dávid;22;MJ;113,9;125;0,875;200;-210;210;;210;183,75;185,5875;1-MJ-125;HUNGARY
FÜLPESI Tibor;21;MJ;120,6;125;0,863;-200;200;-210;;200;172,6;176,052;2-MJ-125;HUNGARY
KOSTURA Adam;23;MJ;123,9;125;0,859;150;157,5;-162,5;;157,5;135,2925;135,2925;3-MJ-125;CZECH Republic
VIKTOR Martin;20;MJ;127,6;140;0,854;195;202,5;-210;;202,5;172,935;178,12305;1-MJ-140;HUNGARY
BUZINSKIS Ricards;22;MJ;131,9;140;0,849;150;157,5;165;;165;140,085;141,48585;2-MJ-140;LATVIA
KRIEG Ron;20;MJ;140,9;SHW;0,8394;182,5;190;197,5;;197,5;165,7815;170,754945;1-MJ-SHW;GERMANY
FREY Dávid;22;MJ;163,8;SHW;0,822;165;187,5;192,5;;192,5;158,235;159,81735;2-MJ-SHW;HUNGARY
FEKETE Patrik;21;MJ;148,4;SHW;0,832;185;190;-197,5;;190;158,08;161,2416;3-MJ-SHW;HUNGARY
BIHI Bence;18;MT3;111,5;125;0,881;175;185;192,5;;192,5;169,5925;179,76805;1-MT3-125;HUNGARY
JAKUBEK Ádám;17;MT2;112,2;125;0,879;130;140,5;146;148,5;146;128,334;138,60072;1-MT2-125;SLOVAK Republic
BIALIK János;17;MT2;115,5;125;0,872;135;141;-146,5;-146,5;141;122,952;132,78816;2-MT2-125;HUNGARY