Event,Sex,Name,State,BodyweightKg,WeightClassKg,Division,Best3SquatKg,Best3BenchKg,Best3DeadliftKg,TotalKg,Equipment,Place
SBD,F,Dani Savoie,AB,72.5,84,Open,145,105,135,385,Single-ply,1
SBD,M,Thomas Leudersdorff,AB,76.4,83,Open,160,110,175,445,Raw,1
SBD,M,Aiden Farmer,AB,82.5,83,Open,147.5,105,187.5,440,Raw,2
SBD,M,Steven Chen,AB,71.4,74,Open,182.5,117.5,220,520,Raw,1
SBD,F,Shalon McFarlone,AB,61,63,Open,110,50,120,280,Raw,1
SBD,M,Matt Golas,AB,132.5,120+,Open,210,135,240,585,Raw,1
SBD,M,Ryan Mann,AB,89,93,Juniors,152.5,100,165,417.5,Raw,2
SBD,M,Colton Girard,AB,88.6,93,Juniors,210,150,240,600,Raw,1
