Place,Name,State,WeightClassKg,BodyweightKg,Age,Best3SquatKg,Best3BenchKg,Best3DeadliftKg,TotalKg,Sex,Division,Equipment,Event,Squat4Kg
1,Shana Georgis,AZ,56,53.4,21,105,55,132.5,292.5,F,Juniors 20-23,Raw,SBD,
2,Lizette Magana,AZ,56,55,21,92.5,50,130,272.5,F,Juniors 20-23,Raw,SBD,
1,Marina Mcmorrow,AZ,60,56.9,23,57.5,42.5,82.5,182.5,F,Juniors 20-23,Raw,SBD,
1,Samantha Howe,AZ,67.5,63.7,21,87.5,50,105,242.5,F,Juniors 20-23,Raw,SBD,
2,Emily Fichter,AZ,67.5,61.7,20,85,40,115,240,F,Juniors 20-23,Raw,SBD,
1,Isabella Rangel-Finch,AZ,82.5,76.7,16,77.5,57.5,117.5,252.5,F,Juniors 16-17,Raw,SBD,
1,Leah Micek,AZ,90,88.9,21,147.5,67.5,157.5,372.5,F,Juniors 20-23,Raw,SBD,
DQ,Judy Polanco,AZ,52,51.7,29,112.5,,142.5,,F,Open,Raw,SBD,
1,Lizette Magana,AZ,56,55,21,92.5,50,130,272.5,F,Open,Raw,SBD,
1,Courtney Deer,AZ,60,59.3,28,132.5,62.5,130,325,F,Open,Raw,SBD,
2,Jessica Woodward,AZ,60,58.2,29,110,50,125,285,F,Open,Raw,SBD,
3,Erika Johnson,AZ,60,59.9,24,92.5,45,110,247.5,F,Open,Raw,SBD,
1,Robin Durham,AZ,67.5,65.9,36,112.5,62.5,120,295,F,Open,Raw,SBD,
2,Taylor Contreras,AZ,67.5,62.9,27,92.5,50,132.5,275,F,Open,Raw,SBD,
1,Emily Canacakos,AZ,75,73.9,24,127.5,77.5,165,370,F,Open,Raw,SBD,
2,Robin O'Connell,AZ,75,73.4,42,110,75,165,350,F,Open,Raw,SBD,
3,Alexis Widemark,AZ,75,74.2,25,112.5,77.5,135,325,F,Open,Raw,SBD,
4,Tanya Maldonado,AZ,75,74.3,25,112.5,62.5,130,305,F,Open,Raw,SBD,
1,Danielle Pressler,AZ,82.5,81.3,31,145,92.5,182.5,420,F,Open,Raw,SBD,
2,LeAnne Shumaker,AZ,82.5,76.1,47,105,67.5,147.5,320,F,Open,Raw,SBD,
1,Leah Micek,AZ,90,88.9,21,147.5,67.5,157.5,372.5,F,Open,Raw,SBD,
2,Anabel Hernandez,AZ,90,87.2,28,142.5,50,162.5,355,F,Open,Raw,SBD,
1,Marsea Williams,AZ,90+,105,39,150,107.5,172.5,430,F,Open,Raw,SBD,
2,Christina Gutierrez,AZ,90+,101.7,44,167.5,72.5,185,425,F,Open,Raw,SBD,
3,Kristen Way,AZ,90+,94.7,31,147.5,85,180,412.5,F,Open,Raw,SBD,
4,Holly Hester,AZ,90+,105.9,29,97.5,62.5,147.5,307.5,F,Open,Raw,SBD,
1,Katy Whitlock,AZ,52,50.1,39,82.5,42.5,107.5,232.5,F,Submasters 35-39,Raw,SBD,
1,Jaime Avery,AZ,67.5,64.9,42,105,67.5,122.5,295,F,Masters 40-44,Raw,SBD,
2,Jamie Butler,AZ,67.5,64.7,41,75,42.5,115,232.5,F,Masters 40-44,Raw,SBD,
1,Robin O'Connell,AZ,75,73.4,42,110,75,165,350,F,Masters 40-44,Raw,SBD,
1,LeAnne Shumaker,AZ,82.5,76.1,47,105,67.5,147.5,320,F,Masters 45-49,Raw,SBD,
DQ,Kim McKay,AZ,82.5,79,57,120,,125,,F,Masters 55-59,Raw,SBD,
1,Christina Gutierrez,AZ,90+,101.7,44,167.5,72.5,185,425,F,Masters 40-44,Raw,SBD,
1,Colton Artrip,AZ,67.5,63.7,22,170,102.5,190,462.5,M,Juniors 20-23,Raw,SBD,
1,Taylor Osten,AZ,75,73.3,22,190,112.5,215,517.5,M,Juniors 20-23,Raw,SBD,
2,Gustavo Figueroa,AZ,75,72.3,22,145,92.5,165,402.5,M,Juniors 20-23,Raw,SBD,
1,Wesley Desrosier,AZ,82.5,80.7,19,207.5,142.5,230,580,M,Juniors 18-19,Raw,SBD,
1,Jacob Fox,AZ,82.5,80.6,22,167.5,102.5,205,475,M,Juniors 20-23,Raw,SBD,
1,Andre Villapando,AZ,90,89.6,22,197.5,140,207.5,545,M,Juniors 20-23,Raw,SBD,
2,Aj Davalos,AZ,90,84.3,21,177.5,120,245,542.5,M,Juniors 20-23,Raw,SBD,
1,Timothy Cowan,AZ,110,109.8,21,212.5,140,250,602.5,M,Juniors 20-23,Raw,SBD,
1,Daniel Harper,AZ,75,74.6,30,180,130,227.5,537.5,M,Open,Raw,SBD,
2,Zane Walling,AZ,75,74,24,170,110,227.5,507.5,M,Open,Raw,SBD,
3,Jared Senne,NV,75,74,24,160,100,195,455,M,Open,Raw,SBD,
1,Kaleb Murray,AZ,82.5,80.8,25,177.5,137.5,232.5,547.5,M,Open,Raw,SBD,
2,Juan Schroth,AZ,82.5,77.8,27,190,120,230,540,M,Open,Raw,SBD,
1,Joe McGannon,AZ,90,89.4,25,232.5,140,262.5,635,M,Open,Raw,SBD,
2,Jordon Heintz,AZ,90,87.8,27,205,155,272.5,632.5,M,Open,Raw,SBD,
3,Cody Wilson,AZ,90,90,28,200,150,232.5,582.5,M,Open,Raw,SBD,
1,Vinny Clarin,AZ,100,97.8,26,250,142.5,295,687.5,M,Open,Raw,SBD,
2,Eric Ximenez,TX,100,95,27,242.5,160,272.5,675,M,Open,Raw,SBD,
3,Calvin Baldwin,AZ,100,97.6,32,227.5,170,260,657.5,M,Open,Raw,SBD,
1,Luigi Fagiani,,110,108.6,26,292.5,185,382.5,860,M,Open,Raw,SBD,
2,Chase Noll,AZ,110,105,33,207.5,152.5,252.5,612.5,M,Open,Raw,SBD,
3,Logan Perez-Braxton,AZ,110,107.2,26,190,120,220,530,M,Open,Raw,SBD,
1,Steve Maday,AZ,125,120.7,36,282.5,227.5,365,875,M,Open,Raw,SBD,
2,Darrion Jones,AZ,125,124.3,30,270,242.5,282.5,795,M,Open,Raw,SBD,
3,Randy Turley,AZ,125,114.2,27,225,150,262.5,637.5,M,Open,Raw,SBD,
4,Edson Sierra,AZ,125,111.9,41,185,137.5,225,547.5,M,Open,Raw,SBD,
5,James McDonald,AZ,125,120.5,29,192.5,117.5,200,510,M,Open,Raw,SBD,
1,James Ortiz,AZ,140+,149.8,36,287.5,215,295,797.5,M,Open,Raw,SBD,
2,David Collins,AZ,140+,162.4,29,280,185,295,760,M,Open,Raw,SBD,
1,David Cooper,AZ,82.5,81.6,42,202.5,155,237.5,595,M,Masters 40-44,Raw,SBD,
2,Bernie Medina,AZ,82.5,80.9,43,142.5,95,187.5,425,M,Masters 40-44,Raw,SBD,
1,Eric Ranney,AZ,110,108,44,245,152.5,262.5,660,M,Masters 40-44,Raw,SBD,
1,Edson Sierra,AZ,125,111.9,41,185,137.5,225,547.5,M,Masters 40-44,Raw,SBD,
1,Savannah Sparkes,AZ,60,57.5,17,85,37.5,102.5,225,F,Juniors 16-17,Wraps,SBD,
1,Stephanie Dominguez,AZ,75,73.1,19,125,45,140,310,F,Juniors 18-19,Wraps,SBD,
1,Jennifer Pusey,AZ,56,55.6,33,95,55,127.5,277.5,F,Open,Wraps,SBD,
1,Tricia Downing,AZ,60,60,43,137.5,75,170,382.5,F,Open,Wraps,SBD,
1,Melissa Lesage,AZ,67.5,66.1,29,175,102.5,182.5,460,F,Open,Wraps,SBD,
2,Noemi Garnica,CA,67.5,67.5,29,142.5,82.5,157.5,382.5,F,Open,Wraps,SBD,
1,Deana D'Andrea,AZ,75,72.2,30,165,87.5,185,437.5,F,Open,Wraps,SBD,170
2,Nicole Perez,AZ,75,73.6,31,160,85,170,415,F,Open,Wraps,SBD,
1,Tricia Downing,AZ,60,60,43,137.5,75,170,382.5,F,Masters 40-44,Wraps,SBD,
1,Elijah Gruppo,AZ,82.5,76.7,18,167.5,147.5,190,505,M,Juniors 18-19,Wraps,SBD,
1,Brandon Adams,AZ,67.5,66.3,31,165,117.5,227.5,510,M,Open,Wraps,SBD,
1,Brandon Queen,AZ,90,87.6,34,217.5,140,237.5,595,M,Open,Wraps,SBD,
2,Cristopher Price,AZ,90,88.9,27,192.5,125,262.5,580,M,Open,Wraps,SBD,
3,Kevin Truong,AZ,90,90,24,210,102.5,227.5,540,M,Open,Wraps,SBD,
1,Irving Acosta,TX,100,96.6,29,262.5,150,250,662.5,M,Open,Wraps,SBD,
DQ,Raphael Teich,AZ,110,109.8,33,295,,,,M,Open,Wraps,SBD,
1,Nik Dorion,CA,140,136.6,25,210,160,240,610,M,Open,Wraps,SBD,
1,Terry O'Neal,AZ,110,105.5,58,190,125,185,500,M,Masters 55-59,Wraps,SBD,
1,Gary Hunter,TX,67.5,67.2,30,212.5,137.5,240,590,M,Open,Single-ply,SBD,
1,Mike Early,AZ,90,89.8,41,287.5,242.5,292.5,822.5,M,Open,Single-ply,SBD,
1,Mike Early,AZ,90,89.8,41,287.5,242.5,292.5,822.5,M,Masters 40-44,Single-ply,SBD,
1,Philip Skinner,AZ,90,89,45,237.5,167.5,240,645,M,Masters 45-49,Single-ply,SBD,
1,Jon Marshall,AZ,100,98.6,44,282.5,212.5,265,760,M,Masters 40-44,Single-ply,SBD,
1,Savannah Sparkes,AZ,60,57.5,17,,37.5,,37.5,F,Juniors 16-17,Raw,B,
1,Isabella Rangel-Finch,AZ,82.5,76.7,16,,57.5,,57.5,F,Juniors 16-17,Raw,B,
1,Suzanne Davis,AZ,60,59.9,46,,107.5,,107.5,F,Open,Raw,B,
1,Derek Andresen,AZ,90,89.2,21,,197.5,,197.5,M,Juniors 20-23,Raw,B,
1,Austin Scherer,AZ,110,107.8,21,,170,,170,M,Juniors 20-23,Raw,B,
1,David Joplin,AZ,90,88.7,24,,182.5,,182.5,M,Open,Raw,B,
1,Rocky Morrison,AZ,125,117.2,33,,175,,175,M,Open,Raw,B,
DQ,Sid Gottschalk,AZ,125,120.5,30,,,,,M,Open,Raw,B,
1,Zack Mayfield,AZ,140,140,27,,182.5,,182.5,M,Open,Raw,B,
1,Jacob Havelind,AZ,140+,141.5,34,,262.5,,262.5,M,Open,Raw,B,
1,David Cooper,AZ,82.5,81.6,42,,155,,155,M,Masters 40-44,Raw,B,
1,Raymond D'Alessio,AZ,90,90,44,,142.5,,142.5,M,Masters 40-44,Raw,B,
1,Philip Meyer,AZ,125,121.5,70,,142.5,,142.5,M,Masters 70-74,Single-ply,B,
1,Savannah Sparkes,AZ,60,57.5,17,,,102.5,102.5,F,Juniors 16-17,Raw,D,
1,Stephanie Dominguez,AZ,75,73.1,19,,,140,140,F,Juniors 18-19,Raw,D,
1,Isabella Rangel-Finch,AZ,82.5,76.7,16,,,117.5,117.5,F,Juniors 16-17,Raw,D,
1,Suzanne Davis,AZ,60,59.9,46,,,207.5,207.5,F,Open,Raw,D,
1,Jeremy Lenyard,AZ,60,59.6,20,,,187.5,187.5,M,Juniors 20-23,Raw,D,
1,Jeremy Lenyard,AZ,60,59.6,20,,,187.5,187.5,M,Open,Raw,D,
1,Ray Muller,AZ,90,88.7,82,,,145,145,M,Open,Raw,D,
1,Atom Cook,AZ,110,103.2,24,,,272.5,272.5,M,Open,Raw,D,
1,David Cooper,AZ,82.5,81.6,42,,,237.5,237.5,M,Masters 40-44,Raw,D,
1,Ray Muller,AZ,90,88.7,82,,,145,145,M,Masters,Raw,D,
1,Gary Hunter,TX,67.5,67.2,30,,,240,240,M,Open,Single-ply,D,
