Place,Name,Equipment,Event,Sex,BirthYear,Country,BodyweightKg,Squat1Kg,Squat2Kg,Squat3Kg,Best3SquatKg,Bench1Kg,Bench2Kg,Bench3Kg,Best3BenchKg,Deadlift1Kg,Deadlift2Kg,Deadlift3Kg,Best3DeadliftKg,TotalKg,WeightClassKg,Division
1,Wei-Ling Chen,Single-ply,SBD,F,1982,Taiwan,46.29,177.5,185,190,190,80,85,-87.5,85,170,180,-190,180,455,47,Open
2,Yukako Fukushima,Single-ply,SBD,F,1970,Japan,45.67,165,175,-180,175,-117.5,-117.5,117.5,117.5,150,157.5,-167.5,157.5,450,47,Open
3,Raija Jurkko,Single-ply,SBD,F,1963,Finland,46.52,162.5,170,,170,90,95,-97.5,95,-145,150,157.5,157.5,422.5,47,Open
4,María Luisa Vásquez,Single-ply,SBD,F,1985,Puerto Rico,46.14,162.5,167.5,-170,167.5,85,90,-92.5,90,145,152.5,-157.5,152.5,410,47,Open
5,Bénédicte LePanse,Single-ply,SBD,F,1978,France,46.03,145,155,-162.5,155,85,90,92.5,92.5,145,152.5,157.5,157.5,405,47,Open
DQ,Ilka Schwengl-Forsthuber,Single-ply,SBD,F,1965,Austria,46.72,135,-140,-142.5,135,-107.5,-107.5,-107.5,,,,,,,47,Open
1,Natalia Salnikova,Single-ply,SBD,F,1986,Russia,51.24,180,192.5,200,200,120,125,-130,125,165,175,180,180,505,52,Open
2,Vilma Ochoa Vargas,Single-ply,SBD,F,1980,Ecuador,51.88,200,210,215,215,92.5,97.5,-100,97.5,167.5,177.5,-185,177.5,490,52,Open
3,Anastasiya Derevyanko,Single-ply,SBD,F,1987,Ukraine,51.39,165,175,-185,175,100,107.5,112.5,112.5,170,-177.5,177.5,177.5,465,52,Open
4,Mailebis Oquendo,Single-ply,SBD,F,1987,Venezuela,51.84,175,182.5,-190,182.5,87.5,92.5,95,95,175,-185,-185,175,452.5,52,Open
5,Irani Barbosa,Single-ply,SBD,F,1986,Brazil,51.63,172.5,-180,-180,172.5,-97.5,97.5,-100,97.5,150,160,167.5,167.5,437.5,52,Open
6,Yi-Ju Chou,Single-ply,SBD,F,1980,Taiwan,50.82,165,-172.5,-172.5,165,75,80,82.5,82.5,180,187.5,-195.5,187.5,435,52,Open
7,Suzanne Hartwig-Gary,Single-ply,SBD,F,1968,USA,51.49,157.5,-167.5,167.5,167.5,87.5,92.5,-97.5,92.5,150,160,167.5,167.5,427.5,52,Open
8,Sanna Apuli,Single-ply,SBD,F,1981,Finland,50.78,155,162.5,-167.5,162.5,82.5,87.5,-90,87.5,155,162.5,167.5,167.5,417.5,52,Open
9,Miia Liimatainen,Single-ply,SBD,F,1986,Sweden,50.79,165,175,182.5,182.5,80,-85,-85,80,155,-165,-167.5,155,417.5,52,Open
10,Vanessa Martin,Single-ply,SBD,F,1976,France,51.45,150,160,-162.5,160,87.5,90,92.5,92.5,145,150,152.5,152.5,405,52,Open
11,Mervi Sirkiä,Single-ply,SBD,F,1972,Finland,51.84,-155,155,-160,155,90,-92.5,-92.5,90,155,160,-167.5,160,405,52,Open
12,Mika Teramura,Single-ply,SBD,F,1962,Japan,51.83,135,142.5,-152.5,142.5,92.5,95,-100,95,142.5,150,-157.5,150,387.5,52,Open
13,Louise Edwards,Single-ply,SBD,F,1978,UK,50.76,122.5,130,135,135,60,65,67.5,67.5,140,147.5,152.5,152.5,355,52,Open
14,Frances Báez,Single-ply,SBD,F,1988,Puerto Rico,51.71,-120,120,125,125,60,65,-70,65,130,-135,-135,130,320,52,Open
1,Hartati Sri,Single-ply,SBD,F,1984,Indonesia,56.38,205,215,-222.5,215,130,135,-140.5,135,180,190,195,195,545,57,Open
2,Hui-Chun Wu,Single-ply,SBD,F,1986,Taiwan,56.21,-180,180,187.5,187.5,120,-127.5,-127.5,120,185,192.5,195,195,502.5,57,Open
3,Mervi Anita Rantamäki,Single-ply,SBD,F,1974,Finland,56.88,195,200,205,205,-112.5,112.5,117.5,117.5,-170,170,180,180,502.5,57,Open
4,Tetyana Prymenchuk,Single-ply,SBD,F,1972,Ukraine,56.94,187.5,200,-205,200,122.5,127.5,-130,127.5,175,-182.5,-182.5,175,502.5,57,Open
5,Adriana Cuta,Single-ply,SBD,F,1986,Venezuela,56.9,182.5,190,-195,190,-90,-90,90,90,195,-202.5,-202.5,195,475,57,Open
6,Chien-Yu Chou,Single-ply,SBD,F,1982,Taiwan,56.33,170,175,-177.5,175,90,97.5,-102.5,97.5,185,-192.5,-195,185,457.5,57,Open
7,Sara Gutierrez,Single-ply,SBD,F,1975,Peru,55.79,175,182.5,187.5,187.5,82.5,-90,90,90,-165,170,177.5,177.5,455,57,Open
8,Maria Lindberg,Single-ply,SBD,F,1973,Finland,56.2,162.5,170,-175,170,97.5,100,102.5,102.5,165,170,-177.5,170,442.5,57,Open
9,Pamela Bartz,Single-ply,SBD,F,1987,USA,56,167.5,177.5,185,185,80,-85,-85,80,150,160,165,165,430,57,Open
10,Yukie Terada,Single-ply,SBD,F,1974,Japan,56.91,-160,160,-170,160,90,-95,-95,90,160,167.5,175,175,425,57,Open
11,Sandra Wildeman,Single-ply,SBD,F,1979,Netherlands,56.78,135,142.5,145,145,80,87.5,-90,87.5,130,-135,-135,130,362.5,57,Open
12,Jannitzzi Tapia,Single-ply,SBD,F,1994,Puerto Rico,55.84,125,132.5,-145,132.5,60,65,-70,65,130,140,-147.5,140,337.5,57,Open
DQ,Xeniya Khan,Single-ply,SBD,F,1987,Kazakhstan,56.93,190,-195,-197.5,190,115,117.5,-122.5,117.5,-187.5,-187.5,-187.5,,,57,Open
1,Larysa Soloviova,Single-ply,SBD,F,1978,Ukraine,62.87,210,220,227.5,227.5,150,160,165.5,165.5,220,240,-245.5,240,633,63,Open
2,Noviana Sari,Single-ply,SBD,F,1984,Indonesia,60.4,210,220,-230,220,125,132.5,142.5,142.5,215,225,-230,225,587.5,63,Open
3,Irina Poletaeva,Single-ply,SBD,F,1982,Russia,62.49,-210,-215,215,215,150,157.5,-162.5,157.5,182.5,195,200,200,572.5,63,Open
4,Tetyana Akhmamyetyeva,Single-ply,SBD,F,1985,Ukraine,62.8,220,-230.5,-230.5,220,145,150,152.5,152.5,185,197.5,-202.5,197.5,570,63,Open
5,Mayumi Kitamura,Single-ply,SBD,F,1967,Japan,62.72,185,197.5,207.5,207.5,-150,150,157.5,157.5,180,190,192.5,192.5,557.5,63,Open
6,Alyssa Hitchcock,Single-ply,SBD,F,1984,USA,62.12,195,205,-212.5,205,105,112.5,-117.5,112.5,205,-220,220,220,537.5,63,Open
7,Annymaryuth Amaya,Single-ply,SBD,F,1980,Venezuela,62.06,200,210,-220,210,105,110,112.5,112.5,200,210,-212.5,210,532.5,63,Open
8,Cícera Tavares,Single-ply,SBD,F,1976,Brazil,61.97,-197.5,-197.5,197.5,197.5,95,100,102.5,102.5,205,-210,-210,205,505,63,Open
9,Hege Berge,Single-ply,SBD,F,1982,Norway,62.87,162.5,170,177.5,177.5,110,115,-117.5,115,-165,172.5,177.5,177.5,470,63,Open
10,Linda Kåda Høiland,Single-ply,SBD,F,1979,Norway,61.11,165,175,-180,175,85,90,-92.5,90,170,180,185,185,450,63,Open
11,María Guðsteinsdóttir,Single-ply,SBD,F,1970,Iceland,62.8,160,167.5,172.5,172.5,97.5,-102.5,-102.5,97.5,160,172.5,180,180,450,63,Open
12,Ann Kaczor Mary,Single-ply,SBD,F,1976,Canada,62.91,160,-170,170,170,92.5,97.5,102.5,102.5,150,160,170,170,442.5,63,Open
13,Jeren Tuylieva,Single-ply,SBD,F,1991,Turkmenistan,62.01,150,-162.5,162.5,162.5,75,80,,80,130,140,-145,140,382.5,63,Open
14,Rebeca Diaz,Single-ply,SBD,F,1985,Puerto Rico,60.99,135,145,152.5,152.5,45,52.5,-60,52.5,125,137.5,-145,137.5,342.5,63,Open
1,Yulia Medvedeva,Single-ply,SBD,F,1986,Russia,66.86,220,-237.5,-242.5,220,160,170,175,175,202.5,215,222.5,222.5,617.5,72,Open
2,Ana Rosa Castellain,Single-ply,SBD,F,1985,Brazil,70.99,232.5,-248,248,248,150,157.5,-162.5,157.5,195,205,210,210,615.5,72,Open
3,Priscilla Ribic,Single-ply,SBD,F,1972,USA,71.19,210,225,-235,225,125,-135,-135,125,-215,215,247.5,247.5,597.5,72,Open
4,Yelyzaveta Byruk,Single-ply,SBD,F,1988,Ukraine,72,-225,225,232.5,232.5,-150,150,157.5,157.5,-207.5,-207.5,207.5,207.5,597.5,72,Open
5,Galina Potselueva,Single-ply,SBD,F,1980,Russia,69.16,230,-240,-240,230,155,-165,165,165,190,-202.5,-202.5,190,585,72,Open
6,Inger Blikra,Single-ply,SBD,F,1961,Norway,71.73,200,215,-220,215,130,135,-140,135,195,205,-212.5,205,555,72,Open
7,Rhaea Stinn,Single-ply,SBD,F,1988,Canada,71.51,200,210,217.5,217.5,-140,140,145,145,177.5,190,-202.5,190,552.5,72,Open
8,Yosleinys Fernández,Single-ply,SBD,F,1984,Venezuela,71.04,210,217.5,222.5,222.5,120,127.5,-132.5,127.5,200,-205,,200,550,72,Open
9,Annette Pedersen,Single-ply,SBD,F,1968,Denmark,71.73,195,207.5,-215,207.5,117.5,122.5,-125,122.5,200,210,-215,210,540,72,Open
10,Ankie Timmers,Single-ply,SBD,F,1986,Netherlands,71.77,-195,195,-200,195,-132.5,132.5,-137.5,132.5,202.5,212.5,-217.5,212.5,540,72,Open
11,Sarah Leighton,Single-ply,SBD,F,1979,Canada,70.88,180,195,207.5,207.5,115,120,-127.5,120,165,175,187.5,187.5,515,72,Open
12,Nicole Steger,Single-ply,SBD,F,1981,Germany,68.76,-182.5,182.5,190,190,107.5,-115,-115,107.5,195,202.5,207.5,207.5,505,72,Open
13,Veronica Opdal,Single-ply,SBD,F,1985,Norway,71.61,187.5,-195,195,195,107.5,-112.5,-112.5,107.5,177.5,187.5,-192.5,187.5,490,72,Open
14,Ladys Burgos,Single-ply,SBD,F,1989,Puerto Rico,72,-177.5,-177.5,177.5,177.5,85,90,92.5,92.5,175,182.5,-187.5,182.5,452.5,72,Open
15,Mahriban Zhumaniyazova,Single-ply,SBD,F,1988,Turkmenistan,70.4,150,160,-170,160,100,-110,-110,100,-120,130,-140,130,390,72,Open
DQ,Johanna Kankus,Single-ply,SBD,F,1984,Finland,71.37,210,-220,225,225,130,137.5,145,145,-180,-180,-180,,,72,Open
1,Olena Kozlova,Single-ply,SBD,F,1990,Ukraine,78.89,-250,252.5,260,260,140,145,150,150,-230,230,250.5,250.5,660.5,84,Open
2,Ielja Strik,Single-ply,SBD,F,1973,Netherlands,83.55,245,250,-252.5,250,160,167.5,172.5,172.5,-215,215,-220,215,637.5,84,Open
3,Liane Blyn,Single-ply,SBD,F,1972,USA,81.71,215,227.5,237.5,237.5,157.5,-167.5,-167.5,157.5,205,215,220,220,615,84,Open
4,Heidi Hille Arnesen,Single-ply,SBD,F,1970,Norway,81.78,230,235,240,240,137.5,142.5,145,145,205,215,220,220,605,84,Open
5,Svetlana Tsvetkova,Single-ply,SBD,F,1980,Russia,78.22,225,232.5,-237.5,232.5,135,140,145,145,205,215,-222.5,215,592.5,84,Open
6,Karol Jimenez,Single-ply,SBD,F,1985,Venezuela,73.11,190,200,210,210,130,135,140,140,200,-205,205,205,555,84,Open
7,Charlie Shotton-Gale,Single-ply,SBD,F,1983,UK,83.82,-185,185,-195,185,-125,125,130,130,180,187.5,192.5,192.5,507.5,84,Open
8,Min-Chu Hung,Single-ply,SBD,F,1983,Taiwan,83.75,175,,,175,150,157.5,170,170,130,-150,-150,130,475,84,Open
9,Joan Báez,Single-ply,SBD,F,1986,Puerto Rico,78.97,-160,160,-170,160,100,110,-120,110,140,-155,155,155,425,84,Open
10,Maria Abarca Elizondo,Single-ply,SBD,F,1981,Costa Rica,75.73,-150,150,-170,150,60,-75,-75,60,150,160,-175,160,370,84,Open
1,Ya-Wen Chang,Single-ply,SBD,F,1984,Taiwan,88.17,225,245,255,255,135,142.5,147.5,147.5,205,222.5,235,235,637.5,84+,Open
2,Inna Orobets,Single-ply,SBD,F,1971,Ukraine,106.72,235,242.5,-250,242.5,160,170,177.5,177.5,190,205,217.5,217.5,637.5,84+,Open
3,Brenda van der Meulen,Single-ply,SBD,F,1978,Netherlands,112.31,205,220,227.5,227.5,165,175,180,180,180,190,-195,190,597.5,84+,Open
4,Ágnes Szabó,Single-ply,SBD,F,1988,Hungary,108.23,210,220,230,230,-175,175,-180,175,160,175,-185,175,580,84+,Open
5,Elizabeth West,Single-ply,SBD,F,1986,USA,98.3,217.5,230,240,240,107.5,-117.5,122.5,122.5,190,200,-210,200,562.5,84+,Open
6,Giselle Costas,Single-ply,SBD,F,1980,Puerto Rico,99.6,185,-200,210,210,122.5,132.5,140,140,185,200,212.5,212.5,562.5,84+,Open
7,Judith Reitmann,Single-ply,SBD,F,1967,Uruguay,86.78,-222.5,222.5,-235,222.5,120,125,-130,125,170,180,-190,180,527.5,84+,Open
DQ,Jie-Wen Chen,Single-ply,SBD,F,1990,Taiwan,123.02,-245,245,-252.5,245,-135,-135,-135,,145,160,-170,160,,84+,Open
