Division,WeightClassKg,Place,Name,Team,BodyweightKg,Best3SquatKg,Best3BenchKg,Best3DeadliftKg,TotalKg,Equipment,Event,Sex
Boys,52,1,Justin Lindsey,Kennedale,51.26,197.31,104.33,170.1,471.74,Single-ply,SBD,M
Boys,52,2,Valdemar Ramirez,Castleberry,48.76,115.67,77.11,151.95,344.73,Single-ply,SBD,M
Boys,52,3,Dallas Elmore,Iowa Park,51.71,131.54,77.11,136.08,344.73,Single-ply,SBD,M
Boys,52,4,Joe Cullum,Kennedale,50.58,127.01,72.57,127.01,326.59,Single-ply,SBD,M
Boys,52,5,Noah Hernandez,Lake Worth,51.71,133.81,72.57,120.2,326.59,Single-ply,SBD,M
Boys,52,6,Lane Anthony,Nevada Community,49.9,131.54,61.23,127.01,319.78,Single-ply,SBD,M
Boys,52,7,Shawn Shepard,Carrollton Ranchview,49.44,113.4,77.11,122.47,312.98,Single-ply,SBD,M
Boys,52,8,Brandon Horst,Sanger,49.67,122.47,74.84,111.13,308.44,Single-ply,SBD,M
Boys,52,DQ,Noah Duvall,Springtown,51.26,117.93,68.04,,,Single-ply,SBD,M
Boys,52,DQ,Landon Stewart,Aubrey,50.8,113.4,61.23,,,Single-ply,SBD,M
Boys,56,1,Marshall Good,Anna,54.43,163.29,97.52,161.03,421.84,Single-ply,SBD,M
Boys,56,2,Jace Duncan,Mineral Wells,54.66,161.03,86.18,158.76,405.97,Single-ply,SBD,M
Boys,56,3,Noah Payne,Bonham,55.57,154.22,79.38,145.15,378.75,Single-ply,SBD,M
Boys,56,4,Nick Kiser,Iowa Park,55.57,142.88,90.72,136.08,369.68,Single-ply,SBD,M
Boys,56,5,Angel Rico,Kennedale,53.52,145.15,72.57,147.42,365.14,Single-ply,SBD,M
Boys,56,6,Alexis Rodriguez,Decatur,53.98,133.81,70.31,151.95,356.07,Single-ply,SBD,M
Boys,56,7,Landry Hoskins,Sanger,53.75,131.54,79.38,140.61,351.53,Single-ply,SBD,M
Boys,56,8,Jorge Morales,Celina,55.57,115.67,95.25,136.08,347,Single-ply,SBD,M
Boys,56,9,Perry Simpson,Melissa,55.57,120.2,63.5,136.08,319.78,Single-ply,SBD,M
Boys,56,10,Joel Rayos,Springtown,55.34,104.33,61.23,129.27,294.84,Single-ply,SBD,M
Boys,56,11,Adam Wilbert,Aubrey,53.52,92.99,56.7,104.33,254.01,Single-ply,SBD,M
Boys,60,1,Ryan Thomas,Iowa Park,58.29,210.92,124.74,215.46,551.11,Single-ply,SBD,M
Boys,60,2,Alaska Venable,Anna,59.65,204.12,117.93,192.78,514.83,Single-ply,SBD,M
Boys,60,3,Dalton Waller,Princeton,58.97,172.37,90.72,181.44,444.52,Single-ply,SBD,M
Boys,60,4,Marc Lara,Decatur,59.65,181.44,81.65,174.63,437.72,Single-ply,SBD,M
Boys,60,5,Jesus Menjivar,Sanger,59.65,176.9,92.99,161.03,430.91,Single-ply,SBD,M
Boys,60,6,Nicholas Reid,Anna,59.65,170.1,79.38,167.83,417.3,Single-ply,SBD,M
Boys,60,7,Casey Fung,Iowa Park,59.65,163.29,90.72,149.69,403.7,Single-ply,SBD,M
Boys,60,8,Jahlian Tate,Graham,59.87,154.22,83.91,156.49,394.63,Single-ply,SBD,M
Boys,60,9,Josh Chaires,Melissa,59.87,158.76,72.57,163.29,394.63,Single-ply,SBD,M
Boys,60,10,Tyler Watts,Sanger,58.74,142.88,97.52,151.95,392.36,Single-ply,SBD,M
Boys,60,11,Luke Sciba,Aubrey,59.87,138.35,83.91,156.49,378.75,Single-ply,SBD,M
Boys,60,12,Cayden Wright,Burkburnett,58.51,154.22,79.38,131.54,365.14,Single-ply,SBD,M
Boys,67.5,1,Dalton Adkins,Iowa Park,66.22,249.48,147.42,208.65,605.55,Single-ply,SBD,M
Boys,67.5,2,Cole Owens,Bonham,67.13,213.19,117.93,199.58,530.7,Single-ply,SBD,M
Boys,67.5,3,Leo Sustaita,Gainesville,67.13,195.04,124.74,195.04,514.83,Single-ply,SBD,M
Boys,67.5,4,Aj Martinez,Decatur,66.9,185.97,92.99,210.92,489.88,Single-ply,SBD,M
Boys,67.5,5,Zach Downing,Wichita Falls Hirschi,65.77,188.24,99.79,199.58,487.61,Single-ply,SBD,M
Boys,67.5,6,Brock Martin,Argyle,66.9,192.78,90.72,192.78,476.27,Single-ply,SBD,M
Boys,67.5,7,Talon Hise,Iowa Park,65.32,181.44,99.79,190.51,471.74,Single-ply,SBD,M
Boys,67.5,8,Mike Acevedo,Anna,65.09,174.63,117.93,172.37,464.93,Single-ply,SBD,M
Boys,67.5,9,Angel Garza,Decatur,62.6,176.9,95.25,183.7,455.86,Single-ply,SBD,M
Boys,67.5,10,Josue Hernandez,Anna,66.22,174.63,104.33,161.03,439.98,Single-ply,SBD,M
Boys,67.5,11,Isaiah Rodriguez,Bridgeport,63.28,149.69,88.45,167.83,405.97,Single-ply,SBD,M
Boys,67.5,12,Mario Discua,Nevada Community,66.68,163.29,83.91,124.74,371.95,Single-ply,SBD,M
Boys,75,1,Dusty Burris,Princeton,72.57,199.58,170.1,226.8,596.47,Single-ply,SBD,M
Boys,75,2,Dre Gresham,Iowa Park,74.03,231.33,138.35,226.8,596.47,Single-ply,SBD,M
Boys,75,3,Austin Ballard,Bonham,73.48,217.72,122.47,222.26,562.45,Single-ply,SBD,M
Boys,75,4,Christian Hand,Bridgeport,73.26,197.31,124.74,201.85,523.9,Single-ply,SBD,M
Boys,75,5,Eli Shields,Bonham,70.08,204.12,102.06,197.31,503.49,Single-ply,SBD,M
Boys,75,6,Phillip Mayfield,Princeton,71.67,188.24,122.47,190.51,501.22,Single-ply,SBD,M
Boys,75,7,Nate Downing,Wichita Falls Hirschi,68.72,174.63,102.06,199.58,476.27,Single-ply,SBD,M
Boys,75,8,Joesph Quigley,Kennedale,73.03,195.04,99.79,176.9,471.74,Single-ply,SBD,M
Boys,75,9,Jared Singleton,Mineral Wells,70.76,195.04,97.52,165.56,458.13,Single-ply,SBD,M
Boys,75,10,Spencer Neumann,Aubrey,72.35,165.56,108.86,183.7,458.13,Single-ply,SBD,M
Boys,75,11,Will Dow,Aubrey,74.16,170.1,106.59,174.63,451.32,Single-ply,SBD,M
Boys,75,DQ,Alex Flores,Princeton,74.16,165.56,,,,Single-ply,SBD,M
Boys,82.5,1,Chon Hernandez,Gainesville,76.2,235.87,127.01,226.8,589.67,Single-ply,SBD,M
Boys,82.5,2,Evan Wilson,Bonham,77.79,217.72,127.01,244.94,589.67,Single-ply,SBD,M
Boys,82.5,3,Antonio Barragan,Anna,75.75,233.6,145.15,208.65,587.4,Single-ply,SBD,M
Boys,82.5,4,Tyler Campbell,Iowa Park,80.06,231.33,122.47,226.8,580.6,Single-ply,SBD,M
Boys,82.5,5,Julian Mendoza,Anna,79.15,219.99,161.03,197.31,578.33,Single-ply,SBD,M
Boys,82.5,6,Billy Goff,Sanger,81.87,219.99,140.61,204.12,564.72,Single-ply,SBD,M
Boys,82.5,7,Nick Golden,Argyle,80.29,206.38,104.33,249.48,560.19,Single-ply,SBD,M
Boys,82.5,8,Payton McAlister,Decatur,79.38,215.46,127.01,215.46,557.92,Single-ply,SBD,M
Boys,82.5,9,Lxamri Bolden,Princeton,78.02,215.46,122.47,199.58,537.51,Single-ply,SBD,M
Boys,82.5,10,Mark Thomas,Decatur,78.93,174.63,113.4,226.8,514.83,Single-ply,SBD,M
Boys,82.5,11,Payton Wallace,Melissa,78.93,190.51,122.47,190.51,503.49,Single-ply,SBD,M
Boys,82.5,12,Skyler Saenz,Sanger,79.83,188.24,122.47,183.7,494.42,Single-ply,SBD,M
Boys,90,1,Joel Jones,Graham,88.45,256.28,147.42,256.28,659.98,Single-ply,SBD,M
Boys,90,2,Johnny Morales,Mineral Wells,85.73,249.48,156.49,251.74,657.71,Single-ply,SBD,M
Boys,90,3,Jose Hernandez,Princeton,86.64,240.4,149.69,244.94,635.03,Single-ply,SBD,M
Boys,90,4,Austin Dickson,Anna,88.9,238.14,154.22,192.78,585.13,Single-ply,SBD,M
Boys,90,5,Joseph Aguilar,Graham,89.58,213.19,136.08,210.92,560.19,Single-ply,SBD,M
Boys,90,6,Ja'Bray Young,Melissa,85.05,215.46,127.01,204.12,546.58,Single-ply,SBD,M
Boys,90,7,Sergio Loma,Decatur,89.81,217.72,124.74,192.78,535.24,Single-ply,SBD,M
Boys,90,8,Breelyn Armstrong,Melissa,88.45,217.72,120.2,190.51,528.44,Single-ply,SBD,M
Boys,90,9,Guillermo Pando,Springtown,84.82,204.12,113.4,199.58,517.1,Single-ply,SBD,M
Boys,90,10,Matteo Carrizales,Decatur,86.41,201.85,117.93,197.31,517.1,Single-ply,SBD,M
Boys,90,11,Matthew Ortiz,Castleberry,88.22,199.58,115.67,199.58,514.83,Single-ply,SBD,M
Boys,90,DQ,Jesse Upchurch,Burkburnett,85.5,,,,,Single-ply,SBD,M
Boys,100,1,Hunter Bagley,Iowa Park,99.7,258.55,142.88,254.01,655.44,Single-ply,SBD,M
Boys,100,2,Ricardo Pena,Kennedale,95.03,272.16,147.42,213.19,632.76,Single-ply,SBD,M
Boys,100,3,Cameron Hanna,Kennedale,98.66,244.94,120.2,244.94,610.08,Single-ply,SBD,M
Boys,100,4,Adrian Arthur,Wichita Falls Hirschi,95.93,215.46,138.35,249.48,603.28,Single-ply,SBD,M
Boys,100,5,Gonsalo Ibarra,Bridgeport,98.88,226.8,158.76,217.72,603.28,Single-ply,SBD,M
Boys,100,6,Klayton Read,Graham,92.76,240.4,151.95,199.58,591.94,Single-ply,SBD,M
Boys,100,7,Walynn Williams,Iowa Park,93.67,242.67,127.01,217.72,587.4,Single-ply,SBD,M
Boys,100,8,Harrison Cornelius,Anna,90.95,229.06,136.08,217.72,582.87,Single-ply,SBD,M
Boys,100,9,Jason Escobedo,Lake Worth,98.88,217.72,138.35,213.19,569.26,Single-ply,SBD,M
Boys,100,10,Mason Chapa,Castleberry,97.3,208.65,136.08,215.46,560.19,Single-ply,SBD,M
Boys,100,11,Isaiah Baeza,Mineral Wells,95.71,238.14,129.27,181.44,548.85,Single-ply,SBD,M
Boys,100,12,Demetri Hendrick,Bridgeport,97.52,213.19,104.33,208.65,526.17,Single-ply,SBD,M
Boys,110,1,Colton Hall,Kennedale,109.09,272.16,158.76,265.35,696.26,Single-ply,SBD,M
Boys,110,2,Jonathan Havis,Sanger,100.7,272.16,163.29,244.94,680.39,Single-ply,SBD,M
Boys,110,3,Asael Lagos,Gainesville,107.5,267.62,149.69,263.08,680.39,Single-ply,SBD,M
Boys,110,4,Alejandro Rangel,Celina,108.18,285.76,156.49,238.14,680.39,Single-ply,SBD,M
Boys,110,5,Tran Wilson,Gainesville,109.32,260.82,142.88,240.4,644.1,Single-ply,SBD,M
Boys,110,6,Blake Tredway,Anna,104.33,263.08,151.95,226.8,641.83,Single-ply,SBD,M
Boys,110,7,Aj Lentz,Mineral Wells,102.51,238.14,151.95,233.6,623.69,Single-ply,SBD,M
Boys,110,8,David Palacios,Graham,108.18,217.72,131.54,226.8,576.06,Single-ply,SBD,M
Boys,110,9,Branden Brewer,Iowa Park,103.65,231.33,122.47,213.19,566.99,Single-ply,SBD,M
Boys,110,10,Kyson Hoskins,Burkburnett,107.95,213.19,108.86,208.65,530.7,Single-ply,SBD,M
Boys,110,11,Chris Serwanga,Kennedale,107.5,242.67,,,242.67,Single-ply,S,M
Boys,110,DQ,Shane Huizenga,Burkburnett,100.24,,,,,Single-ply,SBD,M
Boys,125,1,Jerry Daniel,Nevada Community,122.47,369.68,206.38,276.69,852.75,Single-ply,SBD,M
Boys,125,2,Austin Norton,Nevada Community,122.24,297.1,158.76,247.21,703.07,Single-ply,SBD,M
Boys,125,3,Terry Lee Hogan,Decatur,119.52,272.16,163.29,254.01,689.46,Single-ply,SBD,M
Boys,125,4,Alexis Jimenez,Lake Worth,124.74,260.82,181.44,235.87,678.12,Single-ply,SBD,M
Boys,125,5,Daniel Dowling,Bonham,114.76,299.37,156.49,201.85,657.71,Single-ply,SBD,M
Boys,125,6,Bradley Aaron,Mineral Wells,119.75,244.94,161.03,249.48,655.44,Single-ply,SBD,M
Boys,125,7,Alfonso Duran,Graham,114.08,265.35,140.61,226.8,632.76,Single-ply,SBD,M
Boys,125,8,Fred Reyna,Aubrey,121.34,260.82,142.88,229.06,632.76,Single-ply,SBD,M
Boys,125,9,Eric Stonechek,Bridgeport,123.6,235.87,170.1,222.26,628.23,Single-ply,SBD,M
Boys,125,10,Jeremiah Stanley,Iowa Park,116.21,240.4,149.69,208.65,598.74,Single-ply,SBD,M
Boys,125,11,Dillion Garcia,Anna,113.85,215.46,154.22,208.65,578.33,Single-ply,SBD,M
Boys,125,12,Alex Escandon,Nevada Community,115.89,204.12,129.27,192.78,526.17,Single-ply,SBD,M
Boys,125+,1,Travis Shouse,Anna,145.6,317.51,213.19,249.48,780.18,Single-ply,SBD,M
Boys,125+,2,Miguel Rodriguez,Gainesville,144.47,299.37,181.44,226.8,707.6,Single-ply,SBD,M
Boys,125+,3,Josh King #1,Lake Worth,134.04,274.42,176.9,254.01,705.34,Single-ply,SBD,M
Boys,125+,4,Gage McCarty,Sanger,126.55,267.62,181.44,217.72,666.78,Single-ply,SBD,M
Boys,125+,5,Max Hahn,Carrollton Ranchview,134.26,226.8,142.88,238.14,607.81,Single-ply,SBD,M
Boys,125+,6,Branden Gonzalez,Gainesville,133.36,272.16,108.86,222.26,603.28,Single-ply,SBD,M
Boys,125+,7,Kenson Vance,Decatur,130.41,226.8,147.42,208.65,582.87,Single-ply,SBD,M
Boys,125+,8,Tyler Yzaguirre,Bridgeport,131.09,204.12,170.1,185.97,560.19,Single-ply,SBD,M
Boys,125+,9,Moses Holmes,Decatur,132,204.12,113.4,219.99,537.51,Single-ply,SBD,M
Boys,125+,DQ,Mike Grimes,Princeton,163.97,265.35,197.31,,,Single-ply,SBD,M
Boys,125+,DQ,Caleb Jennings,Bridgeport,130.86,278.96,,,,Single-ply,SBD,M
Boys,,DQ,Brandon Gonzalez,Princeton,,,,,,Single-ply,SBD,M
Boys,,DQ,Fernando Huerta,Bridgeport,,,,,,Single-ply,SBD,M
Boys,,DQ,David Cancino,Gainesville,,,,,,Single-ply,SBD,M
Boys,,DQ,Xavier Parker,Mineral Wells,,,,,,Single-ply,SBD,M
Boys,,DQ,Michael Mixon,Anna,,,,,,Single-ply,SBD,M
Boys,,DQ,Jordan Redfeam,Aubrey,,,,,,Single-ply,SBD,M
Boys,,DQ,Pablo Vera,Aubrey,,,,,,Single-ply,SBD,M
