Name,Country,Sex,Age,Division,Equipment,BodyweightKg,WeightClassKg,Bench1Kg,Bench2Kg,Bench3Kg,Best3BenchKg,Deadlift1Kg,Deadlift2Kg,Deadlift3Kg,Best3DeadliftKg,TotalKg,Event,Place
Erin Hodges,USA,F,,F_O_R,Raw,51.2,52,,,,,85,95,105,105,105,D,G
Beth Hardy,,F,,F_O_R_ABPU,Raw,59.3,60,,,,,127.5,137.5,145,145,145,D,1
Nikki Carter,,F,,F_O_R_BPU,Raw,58.9,60,,,,,50,-70,90,90,90,D,1
Sarah Bradley,,F,,F_T3_R_ABPU,Raw,58.3,60,65,70,-75,70,-140,140,145,145,215,BD,1
Rhianon Lovelace,,F,,F_T3_R_BPU,Raw,57.5,60,,,,,150,-160,-160,150,150,D,1
Daisy Rusby,,F,,F_J_R_BPU,Raw,67,67.5,70,-75,75,75,145,155,160,160,235,BD,1
Angela Harrison,,F,,F_J_R_BPU,Raw,60.6,67.5,,,,,137.5,147.5,-152.5,147.5,147.5,D,1
Linda Broom,,F,,F_M3_M_ABPU,Multi-ply,67.4,67.5,85,90,-95,90,,,,,90,B,1
Linda Broom,,F,,F_M3_M_ABPU,Multi-ply,67.4,67.5,,,,,145,155,-160,155,155,D,1
Melanie Harriot,,F,,F_M3_R_ABPU,Raw,,67.5,,,,,80,90,105,105,105,D,1
Alison Hough,,F,,F_M3_S_ABPU,Single-ply,61.9,67.5,90,95,100,100,,,,,100,B,1
Leanne Raynard,,F,,F_O_R_ABPU,Raw,63.7,67.5,,,,,120,130,-140,130,130,D,3
Cerys Walker,,F,,F_O_R_ABPU,Raw,,67.5,,,,,130,135,-140,135,135,D,2
Simone Bennett,,F,,F_O_R_ABPU,Raw,64.2,67.5,,,,,160,165,-170,165,165,D,1
Maria Rumpunen,,F,,F_O_R_BPU,Raw,67.3,67.5,45,50,55,55,70,80,90,90,145,BD,1
Jane Stevenson,,F,,F_O_R_BPU,Raw,63.5,67.5,,,,,165,175,-180,175,175,D,2
Mhaira Frame,,F,,F_O_R_BPU,Raw,66.6,67.5,,,,,165,180,-190,180,180,D,1
Annie Harding,,F,,F_T2_R_ABPU,Raw,66.4,67.5,,,,,135,145,152.5,152.5,152.5,D,1
Holly Ware,,F,,F_O_R_BPU,Raw,70.8,75,,,,,180,-195,-197.5,180,180,D,1
Mo Proctor,,F,,F_M2_R_ABPU,Raw,82.3,82.5,,,,,120,130,-140,130,130,D,1
Emma Ylitalo-James,,F,,F_M2_S_BPU,Single-ply,80,82.5,-188,-188,188,188,,,,,188,B,1
Leanne Gersden,,F,,F_O_R_BPU,Raw,76.9,82.5,,,,,105,112.5,115,115,115,D,2
Lisa Bulcock,,F,,F_O_R_BPU,Raw,79.4,82.5,,,,,142.5,150,155,155,155,D,1
Emma Ylitalo-James,,F,,F_O_S_BPU,Single-ply,80,82.5,-188,-188,188,188,,,,,188,B,1
Geni Devonish,,F,,F_M1_R_ABPU,Raw,86.6,90,,,,,120,125,130,130,130,D,1
Aisling Peberdy,,F,,F_J_R_ABPU,Raw,,,,,,,135,145,155,155,155,D,1
Jim Mawer,,M,,M_O_R_ABPU,Raw,59.8,60,,,,,147.5,160,-175,160,160,D,2
Gurnaik Birring,,M,,M_O_R_ABPU,Raw,59.6,60,,,,,155,165,175,175,175,D,1
Stuart Jamieson,,M,,M_O_S_BPU,Single-ply,57.5,60,,,,,250,-270,270,270,270,D,1
Callum Lowe,,M,,M_J_R_ABPU,Raw,62.4,67.5,,,,,185,-202.5,-205,185,185,D,1
Budgie Mullan,,M,,M_M1_R_ABPU,Raw,66.5,67.5,,,,,80,130,145,145,145,D,1
Ross McHale,,M,,M_J_R_ABPU,Raw,74.7,75,,,,,200,215,-220,215,215,D,2
Mitch Horrocks,,M,,M_J_R_BPU,Raw,73.1,75,,,,,250,-270,-270,250,250,D,1
John Vincent,,M,,M_M3_R_BPU,Raw,72.3,75,,,,,225,-240,-240,225,225,D,1
Sohail Rashid,,M,,M_O_R_ABPU,Raw,74.7,75,,,,,190,205,-212.5,205,205,D,3
Philip Evans,,M,,M_O_R_ABPU,Raw,74.7,75,,,,,210,225,230,230,230,D,2
Jay Bello,,M,,M_O_R_ABPU,Raw,74.5,75,,,,,265,-280,-285,265,265,D,1
Peter King,,M,,M_O_R_BPU,Raw,72.7,75,,,,,195,205,-210,205,205,D,2
Andrew Smith #2,,M,,M_O_R_BPU,Raw,74.9,75,,,,,245,-262.5,,245,245,D,1
Faisal Al-Wahaibi,,M,,M_T2_M_ABPU,Multi-ply,68.4,75,150,-170,-170,150,,,,,150,B,1
Faisal Herculese,,M,,M_T2_R_BPU,Raw,69,75,,,,,-215,215,-225,215,215,D,1
John Jackson,,M,,M_M7_R_ABPU,Raw,77.3,82.5,,,,,120,-127.5,127.5,127.5,127.5,D,2
Nathaniel Robinson,,M,,M_O_R_ABPU,Raw,81.8,82.5,,,,,215,222.5,-227.5,222.5,222.5,D,2
Kenny Peacock,,M,,M_O_R_ABPU,Raw,78.8,82.5,,,,,240,265,275,275,275,D,1
Douglas Lisle,,M,,M_O_S_ABPU,Single-ply,80.8,82.5,150,160,-170,160,,,,,160,B,1
Fergus Crawley,,M,,M_J_R_BPU,Raw,88.8,90,,,,,210,227.5,240,240,240,D,1
Darren Rothwell,,M,,M_M1_R_BPU,Raw,89.7,90,,,,,220,237.5,-255,237.5,237.5,D,1
Paul Murphy,,M,,M_M3_S_BPU,Single-ply,88.2,90,,,,,270,285,292.5,292.5,292.5,D,1
Matt Nicholson,,M,,M_O_R_ABPU,Raw,89.7,90,,,,,160,170,180,180,180,D,1
Wylie Sung,,M,,M_O_R_BPU,Raw,87.2,90,,,,,180,-200,-215,180,180,D,6
Daniel McCaughey,,M,,M_O_R_BPU,Raw,86.2,90,,,,,180,195,207.5,207.5,207.5,D,5
Gregory Steele,,M,,M_O_R_BPU,Raw,87.3,90,,,,,215,230,245,245,245,D,4
Luke Nash,,M,,M_O_R_BPU,Raw,86.6,90,,,,,250,262.5,,262.5,262.5,D,3
Reece Meakin,,M,,M_O_R_BPU,Raw,89.5,90,,,,,285,305,317.5,317.5,317.5,D,2
Ramone Burton,,M,,M_O_R_BPU,Raw,85.2,90,,,,,290,315.5,320,320,320,D,1
Dan Slater,,M,,M_O_R_BPU,Raw,89.9,90,,,,,-240,-247.5,-250,,,D,DQ
Andrew Murphy #1,,M,,M_J_M_BPU,Multi-ply,96,100,,,,,225,245,260,260,260,D,1
Rik Davison,,M,,M_M4_R_BPU,Raw,97.9,100,,,,,235,255,265,265,265,D,1
Thomas Gleeson,,M,,M_O_M_BPU,Multi-ply,94,100,-235,235,-252.5,235,,,,,235,B,1
Jack Chambers,,M,,M_O_M_BPU,Multi-ply,96.1,100,-262.5,-272.5,-272.5,,,,,,,B,DQ
Thomas Gleeson,,M,,M_O_M_BPU,Multi-ply,94,100,,,,,-305,305,,305,305,D,1
David Mckernan,,M,,M_O_R_ABPU,Raw,99.8,100,140,150,-160,150,280,295,-300,295,445,BD,1
Steve Thresher,,M,,M_O_R_ABPU,Raw,99.1,100,,,,,270,-290,,270,270,D,1
Owen Hodgson,,M,,M_O_R_BPU,Raw,96.5,100,135,145,155,155,230,245,-250,245,400,BD,1
Scott Higgins,,M,,M_O_R_BPU,Raw,97.6,100,,,,,270,285,305,305,305,D,2
Jim Nuttall,,M,,M_O_R_BPU,Raw,98.1,100,,,,,325,342.5,352.5,352.5,352.5,D,1
Dan Stewart,,M,,M_J_R_BPU,Raw,110,110,,,,,260,275,290,290,290,D,1
Scott Chafer,,M,,M_M1_S_BPU,Single-ply,103.2,110,,,,,225,235,-245,235,235,D,1
Richard Baker,,M,,M_M2_R_BPU,Raw,109,110,,,,,210,220,-227.5,220,220,D,2
Mike Towers,,M,,M_M2_R_BPU,Raw,,110,,,,,265,287.5,-300,287.5,287.5,D,1
Warren Whitacker,,M,,M_O_R_ABPU,Raw,109,110,,,,,225,237.5,242.5,242.5,242.5,D,1
Darren Garsden,,M,,M_O_R_BPU,Raw,107.2,110,,,,,125,132.5,150,150,150,D,4
John Sanderson,,M,,M_O_R_BPU,Raw,110,110,,,,,240,255,-265,255,255,D,3
Raimonds Mamonovs,,M,,M_O_R_BPU,Raw,106.2,110,,,,,275,290,300,300,300,D,2
Chris Graham,,M,,M_O_R_BPU,Raw,103,110,,,,,-320,320,330,330,330,D,1
Greg Butler,,M,,M_O_R_BPU,Raw,104.2,110,,,,,-260,-260,-260,,,D,DQ
Iiro Jokipalo,Finland,M,,M_J_R,Raw,113.7,125,,,,,282.5,290,-295,290,290,D,G
Matt Gibson,,M,,M_J_R_BPU,Raw,120.6,125,-155,160,-170,160,,,,,160,B,1
Kurt McEvansoneya,,M,,M_J_R_BPU,Raw,125,125,,,,,270,285,-300,285,285,D,2
Bradley Scott,,M,,M_J_R_BPU,Raw,122.1,125,,,,,285,-305,-305,285,285,D,1
Duncan Sharpe,,M,,M_O_M_BPU,Multi-ply,115.7,125,240,-255,-255,240,,,,,240,B,3
James Godber,,M,,M_O_M_BPU,Multi-ply,123.5,125,230,242.5,-255,242.5,,,,,242.5,B,2
Kalle Ylitalo-James,,M,,M_O_M_BPU,Multi-ply,118.8,125,275,290,-300,290,,,,,290,B,1
Josh Cannon #1,,M,,M_O_M_BPU,Multi-ply,113.2,125,-285,-295,-300,,,,,,,B,DQ
Iain Connor,,M,,M_O_M_BPU,Multi-ply,119.1,125,-290,-290,-290,,,,,,,B,DQ
Jason Holmes #1,,M,,M_O_R_BPU,Raw,124.7,125,,,,,275,-290,-290,275,275,D,4
Grant Mcevansoneya,,M,,M_O_R_BPU,Raw,113.6,125,,,,,260,285,-292.5,285,285,D,3
James Gilbert,,M,,M_O_R_BPU,Raw,124.5,125,,,,,270,290,-305,290,290,D,2
Colin Robinson,,M,,M_O_R_BPU,Raw,121.1,125,,,,,290,-310,-310,290,290,D,1
Andrew Cairney,,M,,M_O_S_BPU,Single-ply,124.3,125,180,,,180,,,,,180,B,1
Andrew Cairney,,M,,M_O_S_BPU,Single-ply,124,125,,,,,312.5,325,330,330,330,D,1
Frankie Kemp,,M,,M_J_R_ABPU,Raw,139.9,140,,,,,240,-260,-260,240,240,D,1
Mick King,,M,,M_M7_S_BPU,Single-ply,126.2,140,-210,210,-220,210,,,,,210,B,1
Ryan Hough,,M,,M_O_M_BPU,Multi-ply,139.5,140,240,255,260,260,,,,,260,B,2
Steve Macneil,,M,,M_O_M_BPU,Multi-ply,129,140,330,-352.5,-352.5,330,,,,,330,B,1
Steve Macneil,,M,,M_O_M_BPU,Multi-ply,129,140,,,,,280,-300,-315,280,280,D,1
Ryan Hough,,M,,M_O_R_BPU,Raw,139.5,140,,,,,310,332.5,342.5,342.5,342.5,D,1
