Place,Name,Sex,Event,Division,WeightClassKg,Equipment,BirthYear,Team,State,BodyweightKg,Squat1Kg,Squat2Kg,Squat3Kg,Best3SquatKg,Bench1Kg,Bench2Kg,Bench3Kg,Best3BenchKg,Deadlift1Kg,Deadlift2Kg,Deadlift3Kg,Best3DeadliftKg,TotalKg
1,Christie Zunker,F,B,R-M1,84,Raw,1973,,GA,74.43,,,,,52.5,55,57.5,57.5,,,,,57.5
1,Sandra Simmons,F,B,R-M3,63,Raw,1948,,FL,61.02,,,,,40,42.5,-47.5,42.5,,,,,42.5
1,Christie Zunker,F,B,R-O,84,Raw,1973,,GA,74.43,,,,,52.5,55,57.5,57.5,,,,,57.5
1,Shawn Knapp,M,B,R-M2,74,Raw,1966,,FL,72.11,,,,,125,-127.5,127.5,127.5,,,,,127.5
1,Jonathan Greco,M,B,R-M2,105,Raw,1959,,GA,99.91,,,,,132.5,140,142.5,142.5,,,,,142.5
1,Jim Campbell,M,B,R-M2,120+,Raw,1966,,FL,155.92,,,,,172.5,182.5,192.5,192.5,,,,,192.5
2,Chris Dixon,M,B,R-M2,120+,Raw,1965,,FL,130.62,,,,,175,182.5,-187.5,182.5,,,,,182.5
3,Nick Benjamin,M,B,R-M2,120+,Raw,1959,,GA,168.41,,,,,172.5,182.5,-187.5,182.5,,,,,182.5
1,Shawn Knapp,M,B,R-O,74,Raw,1966,,FL,72.11,,,,,125,-127.5,127.5,127.5,,,,,127.5
1,Grayham Cheatwood,M,B,R-O,93,Raw,1999,,AL,90.98,,,,,157.5,162.5,-167.5,162.5,,,,,162.5
1,Grayham Cheatwood,M,B,R-T3,93,Raw,1999,,AL,90.98,,,,,157.5,162.5,-167.5,162.5,,,,,162.5
1,Robyn Mohr,F,D,R-M2,57,Raw,1966,,FL,55.89,,,,,,,,,102.5,-112.5,112.5,112.5,112.5
1,Michele Cannella,F,D,R-M2,63,Raw,1959,,FL,57.55,,,,,,,,,102.5,110,-115,110,110
1,Brian Monday,M,D,R-M2,120,Raw,1963,,FL,107.42,,,,,,,,,225,-235,235,235,235
1,David Silverbloom,M,D,R-M2,120+,Raw,1960,,FL,126.28,,,,,,,,,260,-276,-276,260,260
1,Jeysel Vento,F,SBD,R-JR,52,Raw,1994,,FL,47.11,-52.5,-52.5,52.5,52.5,27.5,30,-32.5,30,87.5,95,100,100,182.5
1,Alyssa Meyrick,F,SBD,R-JR,63,Raw,1996,,FL,60.96,-92.5,92.5,97.5,97.5,55,60,-65,60,110,117.5,-127.5,117.5,275
DQ,Amanda Aramis,F,SBD,R-JR,72,Raw,1997,,FL,71.98,-112.5,-120,-120,,42.5,-52.5,-52.5,42.5,112.5,115,117.5,117.5,
1,Alexandra Castellanos,F,SBD,R-JR,84,Raw,1995,,FL,81.51,130,142.5,145,145,60,-67.5,-67.5,60,175,195,-210,195,400
2,Ashley Hanna,F,SBD,R-JR,84,Raw,1996,,GA,80.32,95,102.5,110,110,60,-67.5,-67.5,60,125,137.5,142.5,142.5,312.5
1,Christie Cajina,F,SBD,R-JR,84+,Raw,1994,,FL,121.71,155,162.5,170,170,70,75,-80,75,160,165,175,175,420
1,Genevieve Duremdez,F,SBD,R-M1,57,Raw,1971,,FL,56.48,102.5,110,112.5,112.5,50,52.5,-55,52.5,132.5,-142.5,-142.5,132.5,297.5
1,Ashlei Hand,F,SBD,R-M1,84+,Raw,1973,,TN,104.65,77.5,87.5,95,95,57.5,65,67.5,67.5,105,115,125,125,287.5
1,Robyn Mohr,F,SBD,R-M2,57,Raw,1966,,FL,55.89,82.5,90,-95,90,45,-52.5,-52.5,45,102.5,-112.5,112.5,112.5,247.5
1,JoAnne Friedman,F,SBD,R-M2,63,Raw,1965,,FL,62.65,85,-95,95,95,50,52.5,-57.5,52.5,97.5,105,115,115,262.5
2,Michele Cannella,F,SBD,R-M2,63,Raw,1959,,FL,57.55,72.5,80,85,85,42.5,47.5,50,50,102.5,110,-115,110,245
1,Marie Sanders,F,SBD,R-M2,84+,Raw,1964,Frostbourne Fitness,FL,87.53,72.5,77.5,80,80,47.5,50,52.5,52.5,107.5,115,117.5,117.5,250
1,Susan Paxson,F,SBD,R-M3,84,Raw,1953,,FL,81.96,70,77.5,-80,77.5,42.5,45,-47.5,45,107.5,117.5,-122.5,117.5,240
1,Leona Senyk,F,SBD,R-M4,72,Raw,1927,,FL,71.34,-20,-20,20,20,30,-32.5,-32.5,30,32.5,35,40,40,90
1,Genna Brugal,F,SBD,R-O,57,Raw,1986,,FL,56.91,102.5,107.5,115,115,52.5,55,60,60,150,160,165,165,340
2,Lauren Quinones,F,SBD,R-O,57,Raw,1991,,FL,56.08,115,125,-132.5,125,60,65,-67.5,65,137.5,-147.5,-147.5,137.5,327.5
3,Lauren Bordelon,F,SBD,R-O,57,Raw,1993,,FL,56.44,-97.5,105,110,110,57.5,62.5,65,65,120,132.5,140,140,315
4,Genevieve Duremdez,F,SBD,R-O,57,Raw,1971,,FL,56.48,102.5,110,112.5,112.5,50,52.5,-55,52.5,132.5,-142.5,-142.5,132.5,297.5
5,Jordan Sandoval,F,SBD,R-O,57,Raw,1990,,GA,55.84,75,80,85,85,37.5,42.5,-45,42.5,105,112.5,120,120,247.5
1,Valerie Sinkler,F,SBD,R-O,63,Raw,1979,,SC,61.7,97.5,105,112.5,112.5,70,72.5,-75,72.5,140,150,160,160,345
2,Gabriela Nunez,F,SBD,R-O,63,Raw,1992,,FL,62.93,120,125,-130,125,62.5,65,-67.5,65,137.5,145,-152.5,145,335
3,Lindsay Gray,F,SBD,R-O,63,Raw,1988,,FL,61.4,107.5,122.5,127.5,127.5,50,-52.5,52.5,52.5,112.5,122.5,130,130,310
4,Tania Valdes,F,SBD,R-O,63,Raw,1969,,FL,60.66,90,92.5,-97.5,92.5,57.5,60,-62.5,60,92.5,97.5,105,105,257.5
5,Penny Hadgeoff,F,SBD,R-O,63,Raw,1962,,SC,62.51,80,87.5,92.5,92.5,50,-55,-55,50,100,112.5,-120,112.5,255
6,Kristen McKee,F,SBD,R-O,63,Raw,1990,,FL,62.65,87.5,92.5,97.5,97.5,45,47.5,-52.5,47.5,90,95,102.5,102.5,247.5
1,Tara Highbaugh,F,SBD,R-O,72,Raw,1980,,NC,70.82,102.5,115,130,130,97.5,105,110,110,160,-167.5,-167.5,160,400
2,Elisabeth Saunders,F,SBD,R-O,72,Raw,1979,,GA,69.27,145,155,-160,155,70,-77.5,-77.5,70,145,152.5,-160,152.5,377.5
3,Bianca Dixon,F,SBD,R-O,72,Raw,1992,,FL,69.67,112.5,-120,-120,112.5,70,75,-77.5,75,115,-120,-120,115,302.5
DQ,Lambda Rivera,F,SBD,R-O,72,Raw,1992,,FL,71.64,-102.5,-102.5,-102.5,,-55,,,,,,,,
1,Alexandra Castellanos,F,SBD,R-O,84,Raw,1995,,FL,81.51,130,142.5,145,145,60,-67.5,-67.5,60,175,195,-210,195,400
2,Tiffany Tucker,F,SBD,R-O,84,Raw,1988,,FL,73.76,122.5,127.5,132.5,132.5,57.5,62.5,65,65,130,135,145,145,342.5
3,Samantha Ocanas,F,SBD,R-O,84,Raw,1992,Frostbourne Fitness,FL,79.28,97.5,102.5,110,110,45,50,52.5,52.5,110,117.5,122.5,122.5,285
1,Christie Cajina,F,SBD,R-O,84+,Raw,1994,,FL,121.71,155,162.5,170,170,70,75,-80,75,160,165,175,175,420
2,Cristen McCarthy,F,SBD,R-O,84+,Raw,1988,,FL,99.69,132.5,140,-142.5,140,67.5,72.5,-75,72.5,152.5,160,165,165,377.5
3,Monica Manning,F,SBD,R-O,84+,Raw,1980,,TN,93.34,100,107.5,115,115,75,80,-85,80,135,147.5,155,155,350
1,Brianna Mott,F,SBD,R-T1,63,Raw,2001,,FL,60.74,67.5,70,72.5,72.5,37.5,40,42.5,42.5,82.5,87.5,92.5,92.5,207.5
1,Zoe Vinacco,F,SBD,R-T2,84,Raw,2000,Frostbourne Fitness,FL,72.45,92.5,97.5,105,105,42.5,45,-47.5,45,90,102.5,112.5,112.5,262.5
1,Rebecca Huckleby,F,SBD,R-Y2,63,Raw,2006,,GA,62.92,55,60,68,68,20,27.5,-33,27.5,82.5,87.5,95.5,95.5,191
1,Sarah Huckleby,F,SBD,R-Y3,84+,Raw,2004,,GA,88.77,95,102.5,110,110,46,50,-53,50,110,125.5,132.5,132.5,292.5
1,Christopher Semiramis,M,SBD,O,105,Single-ply,1981,,FL,103.15,185,205,225,225,120,132.5,145,145,205,220,227.5,227.5,597.5
1,Jared Nazario,M,SBD,R-JR,59,Raw,1996,,FL,58.9,130,135,-137.5,135,85,-90,-90,85,182.5,187.5,192.5,192.5,412.5
1,Michael Escano,M,SBD,R-JR,74,Raw,1994,,FL,71.79,207.5,217.5,220,220,135,-142.5,142.5,142.5,257.5,272.5,-277.5,272.5,635
2,Bernabe Chavez,M,SBD,R-JR,74,Raw,1995,,FL,73.56,180,195,-205,195,110,117.5,-122.5,117.5,210,-227.5,-227.5,210,522.5
3,Jeremy Guash,M,SBD,R-JR,74,Raw,1995,,FL,72.5,140,147.5,-155,147.5,112.5,117.5,120,120,217.5,225,232.5,232.5,500
4,Alejandro Correa,M,SBD,R-JR,74,Raw,1994,,FL,72.22,152.5,160,-162.5,160,115,127.5,-135,127.5,192.5,210,-212.5,210,497.5
5,Philip Tomeo,M,SBD,R-JR,74,Raw,1995,,FL,68.53,142.5,-150,-150,142.5,97.5,105,-117.5,105,187.5,-207.5,-210,187.5,435
6,Imani Martinez,M,SBD,R-JR,74,Raw,1993,,FL,72.5,-137.5,-142.5,142.5,142.5,-100,100,102.5,102.5,160,172.5,-177.5,172.5,417.5
1,Shamir Walters,M,SBD,R-JR,83,Raw,1997,Frostbourne Fitness,FL,80.77,175,185,192.5,192.5,102.5,107.5,-112.5,107.5,205,217.5,225,225,525
2,Joseph Mireles,M,SBD,R-JR,83,Raw,1996,,FL,80.4,155,157.5,-172.5,157.5,-125,130,-132.5,130,187.5,197.5,-207.5,197.5,485
1,Sophonias Deldebo,M,SBD,R-JR,93,Raw,1996,,FL,91.68,220,232.5,240,240,157.5,167.5,-172.5,167.5,265,277.5,287.5,287.5,695
2,Giovanni Reynolds,M,SBD,R-JR,93,Raw,1995,,FL,92.26,225,237.5,242.5,242.5,132.5,142.5,147.5,147.5,247.5,265,272.5,272.5,662.5
3,Charles Samper,M,SBD,R-JR,93,Raw,1996,,FL,91.78,122.5,180,187.5,187.5,137.5,145,-152.5,145,215,227.5,-242.5,227.5,560
4,Andy Phaphilom,M,SBD,R-JR,93,Raw,1994,,FL,91.07,182.5,190,-195,190,125,132.5,-137.5,132.5,220,230,-237.5,230,552.5
5,Mark Randio,M,SBD,R-JR,93,Raw,1995,,FL,86.91,125,135,140,140,107.5,115,-122.5,115,185,192.5,200,200,455
1,Alexander Goodwin,M,SBD,R-JR,105,Raw,1994,,FL,104.42,212.5,222.5,227.5,227.5,145,152.5,-155,152.5,272.5,285,290,290,670
2,Alex Winsor,M,SBD,R-JR,105,Raw,1996,,FL,104.42,215,230,-237.5,230,150,160,,160,245,260,272.5,272.5,662.5
3,German Melgar Roca,M,SBD,R-JR,105,Raw,1996,,FL,100.44,190,200,210,210,135,140,145,145,227.5,242.5,250,250,605
1,Michael Bird,M,SBD,R-JR,120,Raw,1994,,FL,115.51,227.5,237.5,-245,237.5,160,167.5,-172.5,167.5,237.5,255,260,260,665
2,Lance Ballester,M,SBD,R-JR,120,Raw,1997,,FL,117.86,137.5,147.5,157.5,157.5,85,92.5,100,100,192.5,202.5,212.5,212.5,470
1,David Mihan,M,SBD,R-JR,120+,Raw,1995,,FL,127.48,235,-240,-240,235,142.5,150,-160,150,245,250,-260,250,635
2,George Clauson,M,SBD,R-JR,120+,Raw,1997,Frostbourne Fitness,FL,121.69,210,222.5,-235,222.5,130,137.5,-145,137.5,240,270,-280,270,630
1,Thomas Moviel,M,SBD,R-M1,93,Raw,1977,,FL,92.06,207.5,217.5,225,225,142.5,152.5,162.5,162.5,215,227.5,247.5,247.5,635
2,Christopher Rousch,M,SBD,R-M1,93,Raw,1976,,FL,92.41,215,-227.5,-227.5,215,142.5,150,155,155,235,247.5,255,255,625
3,Daniel Elmore,M,SBD,R-M1,93,Raw,1975,,GA,92.11,175,185,-187.5,185,112.5,120,-122.5,120,180,190,200,200,505
1,Jakob Idland,M,SBD,R-M1,105,Raw,1970,,GA,98.23,155,165,-170,165,115,125,-137.5,125,175,185,200,200,490
1,Brian Cochran,M,SBD,R-M1,120,Raw,1975,,GA,108.96,-165,177.5,-185,177.5,120,130,-137.5,130,185,200,210,210,517.5
1,Leovigildo Ayala,M,SBD,R-M2,59,Raw,1965,,FL,58.33,60,75,85,85,60,70,-75,70,80,100,110,110,265
1,Doug Harney,M,SBD,R-M2,83,Raw,1962,,FL,82.85,152.5,160,167.5,167.5,95,97.5,,97.5,197.5,205,215,215,480
1,Julian Ulvang,M,SBD,R-M2,93,Raw,1962,,FL,91.96,205,215,222.5,222.5,152.5,160,165,165,220,240,265,265,652.5
2,Craig Starley,M,SBD,R-M2,93,Raw,1961,,FL,91.56,-142.5,-142.5,152.5,152.5,-137.5,142.5,147.5,147.5,142.5,152.5,162.5,162.5,462.5
3,David Deetscreek,M,SBD,R-M2,93,Raw,1958,Frostbourne Fitness,FL,87.61,110,120,130,130,92.5,100,105,105,175,182.5,190,190,425
1,Darvis Simms,M,SBD,R-M2,105,Raw,1958,,NC,103.18,-177.5,177.5,-190,177.5,132.5,142.5,-145,142.5,210,215,-220,215,535
2,Virgil Diaz,M,SBD,R-M2,105,Raw,1960,,FL,103.5,25,-192.5,-192.5,25,25,100,105,105,62.5,222.5,230,230,360
1,James Wildman,M,SBD,R-M2,120,Raw,1959,,FL,116.57,185,205,217.5,217.5,150,170,-177.5,170,185,200,-217.5,200,587.5
1,Samuel Trawick,M,SBD,R-M2,120+,Raw,1966,Frostbourne Fitness,FL,131.35,220,232.5,242.5,242.5,150,157.5,162.5,162.5,222.5,235,245,245,650
1,Patraick Currey,M,SBD,R-M4,83,Raw,1942,,FL,79.93,60,,,60,80,90,108,108,100,,,100,268
1,Ahmad Rozan,M,SBD,R-O,59,Raw,1988,,FL,57.41,137.5,150,-160,150,80,85,-92.5,85,172.5,187.5,-195,187.5,422.5
1,Tanuj Wadhi,M,SBD,R-O,66,Raw,1992,,FL,65.3,150,-155,-155,150,90,95,-97.5,95,182.5,195,205,205,450
1,James Miller,M,SBD,R-O,74,Raw,1995,,GA,73.38,195,205,210,210,147.5,155,-160,155,240,260,275,275,640
2,Imani Martinez,M,SBD,R-O,74,Raw,1993,,FL,72.5,-137.5,-142.5,142.5,142.5,-100,100,102.5,102.5,160,172.5,-177.5,172.5,417.5
1,David Alberts,M,SBD,R-O,83,Raw,1991,,FL,82.93,240,252.5,-265,252.5,152.5,160,-167.5,160,247.5,260,272.5,272.5,685
2,Kerry Thammavong,M,SBD,R-O,83,Raw,1989,,FL,82.99,225,-230,-230,225,142.5,152.5,-155,152.5,267.5,-277.5,-277.5,267.5,645
3,Mark Baquiran,M,SBD,R-O,83,Raw,1987,,FL,82.49,-205,205,-215,205,142.5,152.5,-155,152.5,237.5,245,-260,245,602.5
4,Kyle West,M,SBD,R-O,83,Raw,1992,,FL,82.78,192.5,207.5,215,215,127.5,135,140,140,215,230,245,245,600
5,Colin Dewaay,M,SBD,R-O,83,Raw,1979,,FL,81.21,190,200,210,210,132.5,137.5,140,140,215,227.5,-240,227.5,577.5
6,Mike Philippov,M,SBD,R-O,83,Raw,1987,,FL,79.36,165,177.5,185,185,125,127.5,130,130,210,225,240,240,555
1,Layne Norton,M,SBD,R-O,93,Raw,1981,,FL,92.01,262.5,280,287.5,287.5,145,155,162.5,162.5,285,305,317.5,317.5,767.5
2,Sophonias Deldebo,M,SBD,R-O,93,Raw,1996,,FL,91.68,220,232.5,240,240,157.5,167.5,-172.5,167.5,265,277.5,287.5,287.5,695
3,John Dorman,M,SBD,R-O,93,Raw,1990,,FL,87.41,220,230,240,240,150,155,-160,155,257.5,270,-280,270,665
4,Dustin Adams,M,SBD,R-O,93,Raw,1987,,FL,92.98,-227.5,227.5,,227.5,182.5,197.5,202.5,202.5,227.5,232.5,-235,232.5,662.5
5,Julian Ulvang,M,SBD,R-O,93,Raw,1962,,FL,91.96,205,215,222.5,222.5,152.5,160,165,165,220,240,265,265,652.5
6,Luis Frometa,M,SBD,R-O,93,Raw,1990,,FL,90.03,210,217.5,-230,217.5,-170,-170,170,170,220,237.5,250,250,637.5
7,Shane Walters,M,SBD,R-O,93,Raw,1989,Frostbourne Fitness,FL,91,217.5,227.5,232.5,232.5,137.5,145,150,150,220,227.5,242.5,242.5,625
8,Shawn Watts,M,SBD,R-O,93,Raw,1989,,SC,92.63,205,217.5,230,230,145,150,160,160,217.5,235,-247.5,235,625
9,Joseph Peña,M,SBD,R-O,93,Raw,1988,,FL,92.75,205,227.5,,227.5,115,-125,125,125,260,-272.5,-272.5,260,612.5
10,Daniel Elmore,M,SBD,R-O,93,Raw,1975,,GA,92.11,175,185,-187.5,185,112.5,120,-122.5,120,180,190,200,200,505
11,John Taylor,M,SBD,R-O,93,Raw,1980,,FL,92.92,150,162.5,172.5,172.5,85,92.5,-95,92.5,197.5,215,-220,215,480
1,David Watson #1,M,SBD,R-O,105,Raw,1984,,FL,100.38,252.5,270,-277.5,270,182.5,192.5,-202.5,192.5,300,320,-330,320,782.5
2,Joshua Mathis,M,SBD,R-O,105,Raw,1991,,SC,100.98,227.5,247.5,-250,247.5,170,-175,175,175,282.5,290,295,295,717.5
3,Scott Acosta,M,SBD,R-O,105,Raw,1982,,GA,99.31,212.5,225,235,235,160,167.5,175,175,250,265,275,275,685
4,Rayaz Jabar,M,SBD,R-O,105,Raw,1991,,FL,102.83,220,-227.5,227.5,227.5,185,192.5,202.5,202.5,230,245,252.5,252.5,682.5
5,Nicholas Coker,M,SBD,R-O,105,Raw,1992,,FL,99.89,205,215,227.5,227.5,142.5,157.5,160,160,245,260,267.5,267.5,655
6,Rey Nunez,M,SBD,R-O,105,Raw,1978,,FL,99.14,192.5,200,207.5,207.5,125,135,-145,135,227.5,232.5,235,235,577.5
7,Jason Bua,M,SBD,R-O,105,Raw,1982,,FL,94.06,177.5,-187.5,-187.5,177.5,132.5,137.5,-142.5,137.5,-207.5,207.5,-212.5,207.5,522.5
1,Michael Bird,M,SBD,R-O,120,Raw,1994,,FL,115.51,227.5,237.5,-245,237.5,160,167.5,-172.5,167.5,237.5,255,260,260,665
2,Stuart Anderson,M,SBD,R-O,120,Raw,1989,,FL,113.38,-215,215,-235,215,135,142.5,-150,142.5,235,-250,250,250,607.5
3,James Wildman,M,SBD,R-O,120,Raw,1959,,FL,116.57,185,205,217.5,217.5,150,170,-177.5,170,185,200,-217.5,200,587.5
4,Allan Bagalacsa,M,SBD,R-O,120,Raw,1982,,FL,118.72,197.5,210,-220,210,140,150,-155,150,210,222.5,227.5,227.5,587.5
5,Shaun Krin,M,SBD,R-O,120,Raw,1981,,FL,119.95,-175,182.5,187.5,187.5,135,-145,-145,135,235,250,-260,250,572.5
1,Nathaniel Korpusik,M,SBD,R-O,120+,Raw,1981,,GA,123.41,182.5,215,222.5,222.5,180,185,192.5,192.5,205,222.5,232.5,232.5,647.5
2,David Mihan,M,SBD,R-O,120+,Raw,1995,,FL,127.48,235,-240,-240,235,142.5,150,-160,150,245,250,-260,250,635
1,Austin Winsor,M,SBD,R-T2,93,Raw,1999,,FL,93,187.5,197.5,-205,197.5,112.5,122.5,-127.5,122.5,215,230,235,235,555
1,Issac Quevedo,M,SBD,R-T3,83,Raw,1998,,FL,81.12,212.5,227.5,-232.5,227.5,125,135,142.5,142.5,227.5,247.5,-250,247.5,617.5
2,Chase Johnston,M,SBD,R-T3,83,Raw,1997,,FL,81.6,-210,210,227.5,227.5,122.5,135,142.5,142.5,215,235,-252.5,235,605
3,Anuar Aly,M,SBD,R-T3,83,Raw,1999,,FL,80.36,165,175,182.5,182.5,80,87.5,95,95,207.5,220,225,225,502.5
1,Andrew Lopez,M,SBD,R-T3,93,Raw,1998,,FL,86.94,-190,197.5,-207.5,197.5,112.5,125,127.5,127.5,212.5,220,227.5,227.5,552.5
1,Marcos Fernandez,M,SBD,R-T3,105,Raw,1997,,FL,102.77,-210,210,-227.5,210,142.5,155,157.5,157.5,220,235,-250,235,602.5
2,Daniel Reynolds,M,SBD,R-T3,105,Raw,1998,,FL,102.83,192.5,-205,-205,192.5,122.5,130,135,135,215,227.5,235,235,562.5
1,JoAnne Friedman,F,BD,R-M2,63,Raw,1965,,FL,62.65,,,,,50,52.5,-57.5,52.5,97.5,105,115,115,167.5
1,Christopher Semiramis,M,BD,O,105,Single-ply,1981,,FL,103.15,,,,,120,132.5,145,145,205,220,227.5,227.5,372.5
1,Thomas Toth,M,BD,R-M4,93,Raw,1940,,FL,90.73,,,,,-102.5,102.5,-105,102.5,130,137.5,-145,137.5,240
2,Charles Ocampo,M,BD,R-O,105,Raw,1990,,FL,103.28,,,,,147.5,157.5,160,160,232.5,245,-255,245,405
3,Spencer Howell,M,BD,R-O,105,Raw,1988,,GA,93.69,,,,,137.5,-145,-145,137.5,220,242.5,245,245,382.5
