Place,Name,BirthYear,Country,BodyweightKg,Squat1Kg,Squat2Kg,Squat3Kg,Best3SquatKg,Bench1Kg,Bench2Kg,Bench3Kg,Best3BenchKg,Deadlift1Kg,Deadlift2Kg,Deadlift3Kg,Best3DeadliftKg,TotalKg,WeightClassKg,Division,Event,Sex,Equipment
1,Kirill Krut,1991,Russia,51.7,190,205,-210,205,102.5,107.5,112.5,112.5,175,195,212.5,212.5,530,52,Sub-Juniors,SBD,M,Single-ply
2,Willian Paulini,1993,Brazil,51.7,-115,115,125,125,50,80,,80,-135,135,155,155,360,52,Sub-Juniors,SBD,M,Single-ply
1,Alexander Molin,1992,Russia,55.8,195,205,212.5,212.5,115,120,125,125,-190,200,207.5,207.5,545,56,Sub-Juniors,SBD,M,Single-ply
2,Phillip Rotar,1991,USA,54.9,190,205,-210,205,105,-112.5,112.5,112.5,190,-192.5,210,210,527.5,56,Sub-Juniors,SBD,M,Single-ply
3,Kentaro Mizuguchi,1991,Japan,56,-160,160,170,170,117.5,-122.5,127.5,127.5,160,170,175,175,472.5,56,Sub-Juniors,SBD,M,Single-ply
4,Warren Simon,1992,South Africa,55.7,-167.5,167.5,175,175,105,-115,-115,105,180,190,-200,190,470,56,Sub-Juniors,SBD,M,Single-ply
5,Cesar Lago,1992,Ecuador,54.4,-160,160,-167.5,160,-82.5,82.5,-85,82.5,160,175,-180,175,417.5,56,Sub-Juniors,SBD,M,Single-ply
6,Tumelo Pedi,1992,South Africa,54.5,-140,140,-150,140,80,-85,-85,80,162.5,170,-175,170,390,56,Sub-Juniors,SBD,M,Single-ply
1,Vadim Tsvetkov,1991,Russia,59.6,205,217.5,225,225,122.5,127.5,132.5,132.5,180,187.5,192.5,192.5,550,60,Sub-Juniors,SBD,M,Single-ply
2,Nick Laznovsky,1992,USA,58.6,205,215,-225,215,102.5,-110,-110,102.5,210,220,-232.5,220,537.5,60,Sub-Juniors,SBD,M,Single-ply
3,Danilo Costa,1991,Brazil,59.9,190,-205,-205,190,105,112.5,-117.5,112.5,212.5,-222.5,222.5,222.5,525,60,Sub-Juniors,SBD,M,Single-ply
4,Carter Balaberda,1992,Canada,58.7,210,220,235,235,135,152.5,-163,152.5,-120,120,127.5,127.5,515,60,Sub-Juniors,SBD,M,Single-ply
5,Kennedy Sekome,1992,South Africa,58.9,-120,-120,120,120,70,80,-90,80,-180,180,195,195,395,60,Sub-Juniors,SBD,M,Single-ply
1,Adrien Poinson,1991,France,66.5,200,-210,210,210,175,180,182.5,182.5,200,210,220,220,612.5,67.5,Sub-Juniors,SBD,M,Single-ply
2,Alexey Zdorikov,1991,Russia,66.5,-230,-240,240,240,145,152.5,157.5,157.5,190,197.5,-202.5,197.5,595,67.5,Sub-Juniors,SBD,M,Single-ply
3,Jon Lang,1991,USA,66.6,222.5,-225,-225,222.5,127.5,-135,135,135,197.5,210,-215,210,567.5,67.5,Sub-Juniors,SBD,M,Single-ply
4,Yasuki Yamashita,1991,Japan,67.4,-210,210,215,215,137.5,142.5,147.5,147.5,190,202.5,-210,202.5,565,67.5,Sub-Juniors,SBD,M,Single-ply
5,Toni Väisänen,1991,Finland,66.9,-200,200,-212.5,200,105,-110,-110,105,200,212.5,222.5,222.5,527.5,67.5,Sub-Juniors,SBD,M,Single-ply
6,Dai Nabekura,1992,Japan,66.5,165,175,-180,175,120,-125,125,125,190,205,-212.5,205,505,67.5,Sub-Juniors,SBD,M,Single-ply
DQ,Christopher Bruce,1991,South Africa,66.2,155,-170,-170,155,-85,-95,-95,,175,200,-205,200,,67.5,Sub-Juniors,SBD,M,Single-ply
DQ,Mailton Andrade,1991,Brazil,66.2,-155,-155,,,,,,,,,,,,67.5,Sub-Juniors,SBD,M,Single-ply
1,Yevgeniy Galuzinskiy,1992,Kazakhstan,74.3,250,-260,265,265,130,140,145,145,285,295,300,300,710,75,Sub-Juniors,SBD,M,Single-ply
2,Alexander Parilov,1991,Russia,72.5,255,270,275,275,150,160,170,170,245,252.5,-260,252.5,697.5,75,Sub-Juniors,SBD,M,Single-ply
3,Daigoro Kitagawa,1991,Japan,74.6,220,232.5,242.5,242.5,185.5,-191.5,-191.5,185.5,205,215,222.5,222.5,650.5,75,Sub-Juniors,SBD,M,Single-ply
4,Brennan MacDonald,1992,Canada,74.8,215,-227.5,-227.5,215,140,-145,-145,140,240,260,272.5,272.5,627.5,75,Sub-Juniors,SBD,M,Single-ply
5,Jorge Leite,1991,Brazil,74.4,220,-230,-230,220,130,-137.5,-140,130,210,227.5,-232.5,227.5,577.5,75,Sub-Juniors,SBD,M,Single-ply
6,Cezar Suarez,1992,Ecuador,74.4,195,205,212.5,212.5,-110,-120,120,120,195,215,220,220,552.5,75,Sub-Juniors,SBD,M,Single-ply
7,Daishin Seguchi,1991,Japan,73.9,-240,-240,240,240,-130,130,-140,130,180,-205,-207.5,180,550,75,Sub-Juniors,SBD,M,Single-ply
8,Jabo Phantle,1991,South Africa,68.8,160,170,175,175,90,-95,95,95,180,200,-205,200,470,75,Sub-Juniors,SBD,M,Single-ply
1,Erik Degerman,1991,Sweden,82,290,-302.5,302.5,302.5,180,185,190,190,260,275,-285,275,767.5,82.5,Sub-Juniors,SBD,M,Single-ply
2,Jesse Norris,1993,USA,81.3,-285,-285,285,285,152.5,160,165,165,265,280,-292.5,280,730,82.5,Sub-Juniors,SBD,M,Single-ply
3,Levi Hoffman,1991,USA,81.8,-230,-230,230,230,-145,-147.5,147.5,147.5,225,237.5,245,245,622.5,82.5,Sub-Juniors,SBD,M,Single-ply
4,Laird Ross,1991,Australia,81,200,220,-232.5,220,150,160,165,165,185,200,212.5,212.5,597.5,82.5,Sub-Juniors,SBD,M,Single-ply
5,Herman Spamer,1991,South Africa,79.6,200,-240,250,250,120,-150,-150,120,200,225,-247.5,225,595,82.5,Sub-Juniors,SBD,M,Single-ply
6,Ricardo Baretto,1991,South Africa,80.6,220,240,-260,240,100,-120,-130,100,220,240,-247.5,240,580,82.5,Sub-Juniors,SBD,M,Single-ply
7,Joao Dos Santos,1991,Brazil,76.2,225,-235,-240,225,-135,135,-140,135,195,210,-220,210,570,82.5,Sub-Juniors,SBD,M,Single-ply
8,Jan Lipponen,1991,Finland,82.2,220,-240,-242.5,220,140,147.5,-155,147.5,-190,190,-205,190,557.5,82.5,Sub-Juniors,SBD,M,Single-ply
9,Franklin Marion,1992,Canada,82.2,190,200,210,210,90,97.5,-107.5,97.5,190,205,-215,205,512.5,82.5,Sub-Juniors,SBD,M,Single-ply
1,Vladimir Ignatenkov,1991,Russia,88.8,265,280,285,285,165,172.5,175,175,252.5,262.5,272.5,272.5,732.5,90,Sub-Juniors,SBD,M,Single-ply
2,Viktor Renberg,1991,Sweden,90,245,260,277.5,277.5,-147.5,147.5,152.5,152.5,272.5,285,-305,285,715,90,Sub-Juniors,SBD,M,Single-ply
3,Cameron Bush,1991,USA,89.4,260,275,282.5,282.5,-167.5,167.5,175,175,255,-267.5,-267.5,255,712.5,90,Sub-Juniors,SBD,M,Single-ply
4,Martin Raich,1992,Austria,89.2,280,-285,-285,280,160,-170,-170,160,260,270,-275,270,710,90,Sub-Juniors,SBD,M,Single-ply
5,Iiro Jokipalo,1991,Finland,89.3,240,260,-275,260,130,137.5,-142.5,137.5,205,220,-230,220,617.5,90,Sub-Juniors,SBD,M,Single-ply
6,Kevin Cudmore,1992,Canada,87.5,-240,240,-245,240,-127.5,127.5,132.5,132.5,215,225,-232.5,225,597.5,90,Sub-Juniors,SBD,M,Single-ply
1,Michael Ladner,1991,USA,99.3,285,300,305,305,205,-215.5,215.5,215.5,220,260,272.5,272.5,793,100,Sub-Juniors,SBD,M,Single-ply
2,Quintin Meyer,1991,USA,99.1,265,272.5,280,280,145,152.5,157.5,157.5,265,272.5,275,275,712.5,100,Sub-Juniors,SBD,M,Single-ply
3,Wesley Correa,1992,Brazil,92.3,195,210,230,230,115,127.5,130,130,-225,227.5,260,260,620,100,Sub-Juniors,SBD,M,Single-ply
4,Shugo Majima,1991,Japan,99.2,210,-225,225,225,145,152.5,-160,152.5,200,210,-222.5,210,587.5,100,Sub-Juniors,SBD,M,Single-ply
1,Michael McCoy,1991,USA,108.4,262.5,275,287.5,287.5,207.5,217.5,230,230,277.5,290,300,300,817.5,110,Sub-Juniors,SBD,M,Single-ply
2,David Lupáč,1991,Czechia,106.2,275,290,305,305,170,190,-200,190,260,280,292.5,292.5,787.5,110,Sub-Juniors,SBD,M,Single-ply
3,Toshihiro Hanada,1991,Japan,109.2,240,265,277.5,277.5,157.5,-165,172.5,172.5,230,242.5,-252.5,242.5,692.5,110,Sub-Juniors,SBD,M,Single-ply
4,Matthew Maclean,1991,Canada,106.9,-265,280,292.5,292.5,155,162.5,-170,162.5,210,-220,225,225,680,110,Sub-Juniors,SBD,M,Single-ply
5,Facundo Soria,1991,Argentina,100.8,-210,210,220,220,150,160,-170,160,215,230,245,245,625,110,Sub-Juniors,SBD,M,Single-ply
6,Esko Järvinen,1991,Finland,100.9,212.5,225,-240,225,142.5,152.5,160,160,200,-215,215,215,600,110,Sub-Juniors,SBD,M,Single-ply
1,Maciej Bancer,1991,Poland,117.9,-290,300,310,310,180,190,200,200,230,240,250,250,760,125,Sub-Juniors,SBD,M,Single-ply
2,Joe Trevino,1992,USA,122.6,285,305,312.5,312.5,165,-175,175,175,227.5,-240,-275,227.5,715,125,Sub-Juniors,SBD,M,Single-ply
3,Carlos Guapulema,1993,Ecuador,115.4,200,215,225,225,100,112.5,120,120,165,175,-182.5,175,520,125,Sub-Juniors,SBD,M,Single-ply
1,Alexander Sabelfeld,1991,Russia,136.5,200,215,225,225,-160,165,177.5,177.5,240,260,270,270,672.5,125+,Sub-Juniors,SBD,M,Single-ply
1,Tsuyoshi Otani,1988,Japan,51.4,155,-170,170,170,87.5,95,100,100,180,185,-190,185,455,52,Juniors,SBD,M,Single-ply
2,David Gianna,1990,France,51,160,167.5,172.5,172.5,-100,-100,100,100,170,-180,-187.5,170,442.5,52,Juniors,SBD,M,Single-ply
3,Alvaro Cumbe,1986,Ecuador,50.5,150,160,167.5,167.5,85,-90,-95,85,150,160,-170,160,412.5,52,Juniors,SBD,M,Single-ply
4,Mon Williams Ja,1990,USA,51.2,112.5,137.5,-142.5,137.5,80,-85,-85,80,137.5,152.5,-172.5,152.5,370,52,Juniors,SBD,M,Single-ply
1,Sergey Levin,1987,Russia,56,205,220,240,240,145,155,160,160,205,220,-232.5,220,620,56,Juniors,SBD,M,Single-ply
2,Christopher Tran,1988,USA,55.7,192.5,205,-217.5,205,112.5,-117.5,-117.5,112.5,207.5,220,-230,220,537.5,56,Juniors,SBD,M,Single-ply
3,Fernando da Silva,1989,Brazil,56,170,-180,180,180,105,-115,-115,105,180,190,-217.5,190,475,56,Juniors,SBD,M,Single-ply
4,Takuma Mizuno,1987,Japan,55.5,155,-165,165,165,80,110,120,120,160,180,-195,180,465,56,Juniors,SBD,M,Single-ply
1,Alexander Kolbin,1987,Russia,59.5,230,245,260,260,130,140,155,155,240,260,-278,260,675,60,Juniors,SBD,M,Single-ply
2,Yasumasa Oishi,1987,Japan,59.7,215,235,250,250,100,145,-150,145,215,-235,-235,215,610,60,Juniors,SBD,M,Single-ply
3,Joshua Dear,1989,USA,59.9,197.5,205,210,210,105,115,120,120,-165,170,185,185,515,60,Juniors,SBD,M,Single-ply
4,Madison Ramos,1988,Brazil,59.2,175,-190,-190,175,-100,-100,100,100,175,-200,-200,175,450,60,Juniors,SBD,M,Single-ply
1,Arthur Mashinskiy,1987,Russia,67.3,270,280,-290,280,185,195,205,205,270,285,-295,285,770,67.5,Juniors,SBD,M,Single-ply
2,Michael Broussard,1989,USA,66.8,235,250,265,265,172.5,180,187.5,187.5,230,242.5,250,250,702.5,67.5,Juniors,SBD,M,Single-ply
3,Yuki Zukeran,1988,Japan,66.1,205,215,225,225,190,200,-205,200,230,-240,-240,230,655,67.5,Juniors,SBD,M,Single-ply
4,Zachary Waggenner,1986,USA,67.3,240,-252.5,-252.5,240,160,165,-175,165,235,-240,-240,235,640,67.5,Juniors,SBD,M,Single-ply
5,Sebastien Villagra,1986,Argentina,67.1,235,245,-252.5,245,145,-152.5,152.5,152.5,220,-230,-230,220,617.5,67.5,Juniors,SBD,M,Single-ply
6,Toru Ashihara,1990,Japan,67.5,220,-247.5,-247.5,220,140,-147.5,147.5,147.5,230,-242.5,-245,230,597.5,67.5,Juniors,SBD,M,Single-ply
7,Scott Peisley,1989,Australia,65.9,190,200,-210,200,-115,115,120,120,240,252.5,257.5,257.5,577.5,67.5,Juniors,SBD,M,Single-ply
8,Raphael Leite,1989,Brazil,67,200,210,-217.5,210,117.5,127.5,-130,127.5,200,210,-215,210,547.5,67.5,Juniors,SBD,M,Single-ply
1,José Castillo,1986,Ecuador,74.7,285,300,310,310,190,-197.5,-197.5,190,275,285,290,290,790,75,Juniors,SBD,M,Single-ply
2,Maxim Sharikov,1988,Russia,74.5,300,315,325,325,-190,190,200,200,240,250,262.5,262.5,787.5,75,Juniors,SBD,M,Single-ply
3,Denis Varukhin,1986,Russia,75,290,305,315,315,180,190,197.5,197.5,250,265,-277.5,265,777.5,75,Juniors,SBD,M,Single-ply
4,Andriy Andryuchenko,1989,Ukraine,73.4,260,275,285,285,185,195,200,200,250,-265,-275,250,735,75,Juniors,SBD,M,Single-ply
5,Petteri Keränen,1987,Finland,73.9,265,280,-300,280,-165,170,-180,170,265,275,-290,275,725,75,Juniors,SBD,M,Single-ply
6,Romain Picot-Guéraud,1987,France,74.6,265,272.5,275,275,172.5,-180,180,180,250,260,-265,260,715,75,Juniors,SBD,M,Single-ply
7,Samuel Lappalainen,1986,Finland,74.7,-270,280,287.5,287.5,150,-155,-155,150,260,272.5,277.5,277.5,715,75,Juniors,SBD,M,Single-ply
8,Marc Bielau,1986,Germany,73.9,260,-275,-275,260,-165,165,-170,165,240,255,267.5,267.5,692.5,75,Juniors,SBD,M,Single-ply
9,Michael York,1988,USA,74.1,237.5,245,-250,245,160,-167.5,-167.5,160,232.5,250,-270,250,655,75,Juniors,SBD,M,Single-ply
10,Tomoya Takanashi,1987,Japan,74.6,242.5,257.5,-272.5,257.5,-150,150,-155,150,215,230,-240,230,637.5,75,Juniors,SBD,M,Single-ply
11,Tsuyoshi Hidaka,1986,Japan,74.3,220,230,-240,230,150,162.5,-167.5,162.5,220,235,-245,235,627.5,75,Juniors,SBD,M,Single-ply
12,John Strachan,1988,New Zealand,74.4,220,240,245,245,135,145,-150,145,210,220,-230,220,610,75,Juniors,SBD,M,Single-ply
1,Dmitry Inzarkin,1987,Russia,82.1,310,330,337.5,337.5,210,225,-230,225,280,295,300,300,862.5,82.5,Juniors,SBD,M,Single-ply
2,Eugeny Kuzmin,1988,Russia,82.4,325,340,352.5,352.5,195,207.5,-215,207.5,-280,280,300,300,860,82.5,Juniors,SBD,M,Single-ply
3,Daniel Miller,1988,Poland,82.3,325,340,352.5,352.5,-210,210,220,220,275,285,-290,285,857.5,82.5,Juniors,SBD,M,Single-ply
4,Gil Pinheiro,1987,France,81.8,270,280,285,285,170,177.5,182.5,182.5,270,280,292.5,292.5,760,82.5,Juniors,SBD,M,Single-ply
5,Knute Douglas,1989,USA,81.3,-287.5,292.5,302.5,302.5,162.5,-167.5,-167.5,162.5,277.5,287.5,-295,287.5,752.5,82.5,Juniors,SBD,M,Single-ply
6,Kjell Egil Bakkelund,1987,Norway,79.4,260,-270,280,280,192.5,197.5,202.5,202.5,250,260,-270,260,742.5,82.5,Juniors,SBD,M,Single-ply
7,Daniel Young,1986,Canada,81.7,260,275,285,285,160,170,-185,170,250,-260,-260,250,705,82.5,Juniors,SBD,M,Single-ply
8,Alexander Huber,1990,Austria,79.2,260,267.5,-275,267.5,-170,170,,170,-245,245,-255,245,682.5,82.5,Juniors,SBD,M,Single-ply
9,Genki Izutani,1988,Japan,81,225,235,250,250,-175,175,182.5,182.5,250,-280,-290,250,682.5,82.5,Juniors,SBD,M,Single-ply
10,André Justus,1987,Germany,82,260,270,277.5,277.5,140,-145,-145,140,240,-250,,240,657.5,82.5,Juniors,SBD,M,Single-ply
11,Rodrigo Da Silva,1988,Brazil,78.2,200,220,,220,120,,,120,255,277.5,-287.5,277.5,617.5,82.5,Juniors,SBD,M,Single-ply
12,Joel Ridings,1989,Australia,78.7,230,-240,-240,230,137.5,145,-152.5,145,-210,220,-235,220,595,82.5,Juniors,SBD,M,Single-ply
DQ,Michael Burge,1988,New Zealand,82,-225,-230,-245,,120,127.5,-130,127.5,220,-230,237.5,237.5,,82.5,Juniors,SBD,M,Single-ply
1,Dmytro Semenenko,1988,Ukraine,89.4,340,-360,360,360,200,-207.5,207.5,207.5,290,302.5,310,310,877.5,90,Juniors,SBD,M,Single-ply
2,Levon Tavakalov,1988,Russia,90,310,330,-340,330,-215,215,225,225,300,317.5,-325,317.5,872.5,90,Juniors,SBD,M,Single-ply
3,Mattias Ivarsson,1987,Sweden,89.1,-320,320,-335,320,220,-227.5,-230,220,290,305,-315,305,845,90,Juniors,SBD,M,Single-ply
4,Mike MacDonald,1989,Canada,89.2,-300,-305,305,305,195,200,-205,200,305,325,-342.5,325,830,90,Juniors,SBD,M,Single-ply
5,Justin Walker,1986,USA,89,285,-305,305,305,195,202.5,-207.5,202.5,285,300,305,305,812.5,90,Juniors,SBD,M,Single-ply
6,Witte Dustin,1988,USA,88.9,305,320,-327.5,320,-172.5,175,182.5,182.5,292.5,-307.5,-310,292.5,795,90,Juniors,SBD,M,Single-ply
7,Ramon Burgos,1987,Puerto Rico,88.9,297.5,307.5,315,315,157.5,165,-170,165,-297.5,-300,300,300,780,90,Juniors,SBD,M,Single-ply
8,Kyohei Kubo,1987,Japan,89.7,305,320,330,330,170,-200,-200,170,235,255,-270,255,755,90,Juniors,SBD,M,Single-ply
9,Rodolfo Hatadani,1986,Brazil,87.7,245,-260,260,260,-202.5,202.5,-207.5,202.5,-250,-250,250,250,712.5,90,Juniors,SBD,M,Single-ply
10,Ettienne Potgieter,1986,South Africa,87.7,240,260,270,270,175,185,190,190,235,-250,-250,235,695,90,Juniors,SBD,M,Single-ply
11,Maico Martinato,1986,Argentina,87.9,240,-260,-260,240,170,185,-200,185,250,260,-275,260,685,90,Juniors,SBD,M,Single-ply
12,Jonny Heimerl,1986,Germany,87,-270,270,280,280,170,-180,-180,170,210,220,-230,220,670,90,Juniors,SBD,M,Single-ply
13,Mike Loder,1987,Canada,88.3,232.5,-240,240,240,170,175,-177.5,175,227.5,232.5,-235,232.5,647.5,90,Juniors,SBD,M,Single-ply
1,Vadym Dovhanyuk,1987,Ukraine,98.6,355,-370,-390,355,272.5,-285,,272.5,280,295,300,300,927.5,100,Juniors,SBD,M,Single-ply
2,José Mencias,1987,Venezuela,99.2,305,315,-320,315,225,230,-235,230,310,322.5,-330,322.5,867.5,100,Juniors,SBD,M,Single-ply
3,Marlon Obratoski,1987,Canada,99.4,287.5,300,310,310,-205,205,215,215,265,280,297.5,297.5,822.5,100,Juniors,SBD,M,Single-ply
4,Søren Mølgaard,1988,Denmark,99.6,-315,-315,315,315,210,217.5,222.5,222.5,260,285,-290,285,822.5,100,Juniors,SBD,M,Single-ply
5,Stian Walgermo,1988,Norway,99.7,310,317.5,322.5,322.5,200,-207.5,207.5,207.5,280,290,-295,290,820,100,Juniors,SBD,M,Single-ply
6,Ricardo Coloma,1986,Ecuador,98.2,290,310,325,325,165,175,185,185,265,-285,285,285,795,100,Juniors,SBD,M,Single-ply
7,Mauricio Leguizamon,1989,Argentina,97.2,285,305,320,320,180,-200,-210,180,200,220,-230,220,720,100,Juniors,SBD,M,Single-ply
1,Denis Knyazev,1987,Russia,109.9,360,375,392.5,392.5,250,-260,-265,250,290,305,320,320,962.5,110,Juniors,SBD,M,Single-ply
2,Vladimir Golubev,1986,Kazakhstan,108.2,370,-380,-380,370,225,-230,-230,225,310,320,-352.5,320,915,110,Juniors,SBD,M,Single-ply
3,Jørgen Andreas Hansen,1986,Norway,109.5,340,350,360,360,220,-230,-230,220,290,302.5,305,305,885,110,Juniors,SBD,M,Single-ply
4,Chris Caltabiano,1987,Australia,109.2,310,325,-332.5,325,250,-260,-260,250,265,285,-310,285,860,110,Juniors,SBD,M,Single-ply
5,Jono Radich,1987,New Zealand,102.7,290,300,-310,300,175,-185,185,185,280,-292.5,-292.5,280,765,110,Juniors,SBD,M,Single-ply
1,Viktor Testsov,1989,Ukraine,123.9,360,380,400,400,280,295,305,305,320,335,345,345,1050,125,Juniors,SBD,M,Single-ply
2,Jonathon Krogman,1986,USA,114,335,352.5,365,365,230,240,-250,240,312.5,325,-340,325,930,125,Juniors,SBD,M,Single-ply
3,Kristofer Lundström,1986,Sweden,111.4,320,335,-345,335,230,240,245,245,260,275,290,290,870,125,Juniors,SBD,M,Single-ply
4,Peter Eltzholtz,1988,Denmark,117.7,305,-315,322.5,322.5,200,-210,-210,200,270,290,-300,290,812.5,125,Juniors,SBD,M,Single-ply
5,Kristoffer Hansen,1987,Norway,120.1,270,282.5,-292.5,282.5,195,-200,200,200,310,317.5,-320,317.5,800,125,Juniors,SBD,M,Single-ply
6,Renato Rosa,1988,Brazil,117.6,-300,300,-322.5,300,170,-177.5,177.5,177.5,240,-260,260,260,737.5,125,Juniors,SBD,M,Single-ply
DQ,Luke Bainbridge,1986,Australia,119.1,-260,-270,-277.5,,180,-187.5,-187.5,180,280,-292.5,,280,,125,Juniors,SBD,M,Single-ply
DQ,Raymond Koons,1986,USA,121.3,305,317.5,-332.5,317.5,-222.5,-222.5,-227.5,,265,282.5,300,300,,125,Juniors,SBD,M,Single-ply
1,Andrey Konovalov,1986,Russia,150.1,400,410,415,415,300,310,-320.5,310,325,340,-352.5,340,1065,125+,Juniors,SBD,M,Single-ply
2,Volodymyr Svistunov,1987,Ukraine,147.3,365,380,390,390,270,-280,280,280,320,330,-342.5,330,1000,125+,Juniors,SBD,M,Single-ply
3,Daniel Grabowski,1986,Poland,133.5,-400,-400,400,400,245,260,270,270,310,320,-340,320,990,125+,Juniors,SBD,M,Single-ply
4,Carl Yngvar Christensen,1990,Norway,156.4,360,380,390,390,-252.5,260,-270,260,307.5,320,330,330,980,125+,Juniors,SBD,M,Single-ply
5,Ruslan Ovcharenko,1986,Russia,135.4,-380,380,-385,380,250,-260,260,260,-310,310,-330,310,950,125+,Juniors,SBD,M,Single-ply
6,Tuomas Korkia-Aho,1987,Finland,158.4,320,340,-350,340,290,302.5,312.5,312.5,250,270,277.5,277.5,930,125+,Juniors,SBD,M,Single-ply
7,Thiago Hadad,1986,Brazil,198.1,-350,-350,350,350,240,-250,250,250,260,-270,-270,260,860,125+,Juniors,SBD,M,Single-ply
8,Gabriel Torezan,1987,Brazil,138,260,280,300,300,202.5,212.5,215,215,205,225,-230,225,740,125+,Juniors,SBD,M,Single-ply
1,Konio Mea Dobi,1991,Papua New Guinea,44,125,-135,135,135,-42.5,42.5,47.5,47.5,-125,-125,125,125,307.5,44,Sub-Juniors,SBD,F,Single-ply
2,Tyler Garcia,1991,USA,43.7,95,-112.5,117.5,117.5,52.5,-57.5,-57.5,52.5,110,-125,-125,110,280,44,Sub-Juniors,SBD,F,Single-ply
1,Michelle Van Dusen,1993,USA,46.8,132.5,-145,145,145,52.5,60,65,65,130,140,147.5,147.5,357.5,48,Sub-Juniors,SBD,F,Single-ply
2,Inna Filimonova #2,1994,Russia,47.6,120,135,-145,135,80,85,90,90,115,125,132.5,132.5,357.5,48,Sub-Juniors,SBD,F,Single-ply
3,Kozue Nemoto,1992,Japan,47.4,80,87.5,92.5,92.5,47.5,50,-52.5,50,120,125,127.5,127.5,270,48,Sub-Juniors,SBD,F,Single-ply
1,Ekaterina Osipova,1991,Russia,51.8,155,165,-175,165,85,90,-95,90,135,145,-150,145,400,52,Sub-Juniors,SBD,F,Single-ply
2,Victoria Karlysheva,1993,Russia,51.2,145,152.5,157.5,157.5,60,62.5,65,65,120,125,127.5,127.5,350,52,Sub-Juniors,SBD,F,Single-ply
3,Mareen Schmeelke,1991,Germany,51.7,125,135,145,145,60,62.5,65,65,120,130,137.5,137.5,347.5,52,Sub-Juniors,SBD,F,Single-ply
4,Kenia Monserate,1991,Ecuador,50.7,137.5,-142.5,142.5,142.5,55,62.5,65,65,120,130,137.5,137.5,345,52,Sub-Juniors,SBD,F,Single-ply
5,Britta Carlson,1991,USA,50.8,127.5,-135,-135,127.5,60,70,-80,70,130,-142.5,-150,130,327.5,52,Sub-Juniors,SBD,F,Single-ply
1,Alexa Schillinger,1991,USA,54.5,-152.5,152.5,160,160,70,-77.5,-80,70,162.5,172.5,-178,172.5,402.5,56,Sub-Juniors,SBD,F,Single-ply
2,Natalya Melnikova,1992,Russia,55.7,-127.5,127.5,-137.5,127.5,72.5,77.5,82.5,82.5,120,130,135,135,345,56,Sub-Juniors,SBD,F,Single-ply
3,Misaki Arimoto,1992,Japan,54.1,90,100,110,110,50,57.5,-65,57.5,85,95,-105,95,262.5,56,Sub-Juniors,SBD,F,Single-ply
1,Patricia Llena,1994,Philippines,59.9,162.5,-170,170,170,72.5,77.5,80,80,170,-177.5,-177.5,170,420,60,Sub-Juniors,SBD,F,Single-ply
2,Kendra Miller,1992,USA,57.8,147.5,160,-162.5,160,80,87.5,-92.5,87.5,147.5,157.5,-172.5,157.5,405,60,Sub-Juniors,SBD,F,Single-ply
3,Yana Talybova,1991,Russia,59.5,160,-167.5,167.5,167.5,80,87.5,-92.5,87.5,150,-160,-165,150,405,60,Sub-Juniors,SBD,F,Single-ply
4,Chika Okudo,1991,Japan,56.3,-90,90,-105,90,50,57.5,-62.5,57.5,110,125,-132.5,125,272.5,60,Sub-Juniors,SBD,F,Single-ply
5,Andressa De Sales,1994,Brazil,58.8,105,-110,110,110,50,-52.5,-55,50,100,-110,-110,100,260,60,Sub-Juniors,SBD,F,Single-ply
6,Karine Royer,1994,Canada,57.2,75,85,92.5,92.5,47.5,52.5,55,55,92.5,100,107.5,107.5,255,60,Sub-Juniors,SBD,F,Single-ply
1,Narine Arushanova,1991,Russia,66.7,165,172.5,180,180,85,90,92.5,92.5,160,170,177.5,177.5,450,67.5,Sub-Juniors,SBD,F,Single-ply
2,Kamie Bluell,1991,USA,67.2,150,160,-172.5,160,65,-75,75,75,-152.5,152.5,-155,152.5,387.5,67.5,Sub-Juniors,SBD,F,Single-ply
3,Carla Mozer,1991,Brazil,66.3,120,-130,-130,120,40,55,-60,55,125,130,-140,130,305,67.5,Sub-Juniors,SBD,F,Single-ply
4,Larissa Lizandro,1995,Brazil,66,100,112.5,-120,112.5,50,-55,-55,50,100,115,-125,115,277.5,67.5,Sub-Juniors,SBD,F,Single-ply
1,Nadezda Chernishova,1991,Russia,68.2,155,162.5,167.5,167.5,77.5,-82.5,82.5,82.5,155,165,-172.5,165,415,75,Sub-Juniors,SBD,F,Single-ply
2,Shantel Noel,1993,USA,73.2,152.5,165,170,170,75,82.5,87.5,87.5,-135,-135,135,135,392.5,75,Sub-Juniors,SBD,F,Single-ply
3,Azusa Takano,1991,Japan,72,125,-137.5,140,140,70,80,-87.5,80,125,132.5,-135,132.5,352.5,75,Sub-Juniors,SBD,F,Single-ply
1,Kenzie Hower,1991,USA,81.8,207.5,221.5,,221.5,82.5,87.5,92.5,92.5,135,150,160,160,474,82.5,Sub-Juniors,SBD,F,Single-ply
2,Cecile-May Smith,1992,South Africa,79.7,140,150,165,165,60,67.5,-70,67.5,140,150,155,155,387.5,82.5,Sub-Juniors,SBD,F,Single-ply
1,Lynn Poetzel,1991,USA,87.9,170,180,-187.5,180,60,102.5,-105,102.5,162.5,180,192.5,192.5,475,90,Sub-Juniors,SBD,F,Single-ply
2,Mariana Claudio,1994,Brazil,88.5,100,110,115,115,60,-65,65,65,95,105,-115,105,285,90,Sub-Juniors,SBD,F,Single-ply
1,Rickeyma Ross,1991,USA,123.5,182.5,200,217.5,217.5,97.5,107.5,112.5,112.5,170,190,210,210,540,90+,Sub-Juniors,SBD,F,Single-ply
2,Larissa De Souza Kellen,1993,Brazil,112,150,182.5,200,200,90,105,-112.5,105,115,130,-157.5,130,435,90+,Sub-Juniors,SBD,F,Single-ply
1,Anastasya Strufa,1986,Russia,42.2,130,-135,135,135,70,75,77.5,77.5,115,120,122.5,122.5,335,44,Juniors,SBD,F,Single-ply
2,Yoshiko Muto,1987,Japan,43.6,105,110,115,115,60,65,-67.5,65,115,125,-132.5,125,305,44,Juniors,SBD,F,Single-ply
3,Maria Bosque,1987,Ecuador,44,92.5,100,107.5,107.5,47.5,52.5,55,55,107.5,115,-122.5,115,277.5,44,Juniors,SBD,F,Single-ply
4,Melissa Vongsowanh,1990,USA,42.1,95,100,-107.5,100,42.5,47.5,-52.5,47.5,105,115,-130,115,262.5,44,Juniors,SBD,F,Single-ply
5,Yuki Nakamura,1987,Japan,40.1,80,85,90,90,50,52.5,55,55,95,102.5,107.5,107.5,252.5,44,Juniors,SBD,F,Single-ply
1,Kadriya Murtazina,1986,Russia,47.4,135,145,155,155,65,80,85,85,-145,150,160,160,400,48,Juniors,SBD,F,Single-ply
2,Yu Inoue,1988,Japan,46.7,125,135,145,145,80,-90,90,90,110,120,-130,120,355,48,Juniors,SBD,F,Single-ply
3,Ana Charro,1987,Ecuador,48,-110,110,117.5,117.5,60,67.5,72.5,72.5,115,122.5,125,125,315,48,Juniors,SBD,F,Single-ply
4,Andrea Gonzales,1990,USA,47.4,100,110,-115,110,45,50,52.5,52.5,105,120,125,125,287.5,48,Juniors,SBD,F,Single-ply
5,Yasuko Miki,1990,Japan,46.7,92.5,-102.5,102.5,102.5,62.5,67.5,70,70,107.5,112.5,-115,112.5,285,48,Juniors,SBD,F,Single-ply
1,Carla Alvarado,1986,Ecuador,52,150,-160,160,160,70,75,77.5,77.5,140,150,155,155,392.5,52,Juniors,SBD,F,Single-ply
2,Megan Williams,1988,USA,50.2,137.5,145,-155,145,77.5,82.5,-90,82.5,122.5,135,145,145,372.5,52,Juniors,SBD,F,Single-ply
3,Silmara Silva,1989,Brazil,51.7,127.5,-135,135,135,70,75,-77.5,75,122.5,-127.5,-127.5,122.5,332.5,52,Juniors,SBD,F,Single-ply
4,Megan Bryanton,1986,Canada,52,-125,-125,125,125,-70,70,-77.5,70,125,-130,-130,125,320,52,Juniors,SBD,F,Single-ply
5,Mutsumi Kaneko,1986,Japan,51.6,110,120,-130,120,55,60,62.5,62.5,90,100,110,110,292.5,52,Juniors,SBD,F,Single-ply
1,Adriana Cuta,1986,Venezuela,54.8,150,160,167.5,167.5,80,87.5,92.5,92.5,175,185,190,190,450,56,Juniors,SBD,F,Single-ply
2,Angelica Brage,1987,Sweden,55.8,160,-170,170,170,-85,85,92.5,92.5,160,170,-185,170,432.5,56,Juniors,SBD,F,Single-ply
3,Irani Barbosa Rodrigues,1986,Brazil,55.3,165,-177.5,177.5,177.5,-90,-90,90,90,140,-157.5,-165,140,407.5,56,Juniors,SBD,F,Single-ply
4,Misato Okamura,1988,Japan,54.7,135,145,155,155,87.5,-92.5,-92.5,87.5,130,-140,-140,130,372.5,56,Juniors,SBD,F,Single-ply
5,Emmanuelle Jaworski,1989,France,55.5,-140,140,-147.5,140,70,75,-80,75,140,145,150,150,365,56,Juniors,SBD,F,Single-ply
6,Susann Cichon,1987,Germany,55.4,125,130,135,135,62.5,67.5,-70,67.5,140,150,-157.5,150,352.5,56,Juniors,SBD,F,Single-ply
7,Momoko Sugo,1990,Japan,54.8,110,-130,140,140,60,-70,70,70,130,-140,-140,130,340,56,Juniors,SBD,F,Single-ply
8,Karyne Turcotte,1986,Canada,54.9,-60,60,-65,60,57.5,65,-70,65,80,87.5,-92.5,87.5,212.5,56,Juniors,SBD,F,Single-ply
1,Tutta Kristine Hanssen,1989,Norway,58.5,160,167.5,172.5,172.5,110,115,117.5,117.5,162.5,-170,-170,162.5,452.5,60,Juniors,SBD,F,Single-ply
2,Isabel Maldonado,1988,Ecuador,57.7,-150,155,165,165,-82.5,-82.5,82.5,82.5,160,170,-180,170,417.5,60,Juniors,SBD,F,Single-ply
3,Odile Collard,1986,France,59.4,150,160,-167.5,160,75,82.5,87.5,87.5,155,162.5,-172.5,162.5,410,60,Juniors,SBD,F,Single-ply
4,Adriana DaCosta,1986,USA,58.9,145,155,-167.5,155,75,80,85,85,147.5,-157.5,-157.5,147.5,387.5,60,Juniors,SBD,F,Single-ply
5,Yuka Kuroyanagi,1987,Japan,59.2,137.5,-147.5,-152.5,137.5,80,85,-90,85,140,150,-160,150,372.5,60,Juniors,SBD,F,Single-ply
6,Fabiane Ventura,1988,Brazil,59.6,140,155,-165,155,-60,-60,60,60,140,150,155,155,370,60,Juniors,SBD,F,Single-ply
7,Kaori Fujita,1989,Japan,57.8,120,127.5,135,135,75,-80,-80,75,120,127.5,-132.5,127.5,337.5,60,Juniors,SBD,F,Single-ply
1,Yulia Medvedeva,1986,Russia,66.7,190,205,215,215,137.5,152.5,-160,152.5,-180,195,205,205,572.5,67.5,Juniors,SBD,F,Single-ply
2,Pamela Bartz,1987,USA,65.3,175,187.5,195,195,92.5,97.5,-102.5,97.5,170,182.5,187.5,187.5,480,67.5,Juniors,SBD,F,Single-ply
3,Anni Vuohijoki,1988,Finland,66.6,165,175,187.5,187.5,-97.5,97.5,-105,97.5,160,-175,-175,160,445,67.5,Juniors,SBD,F,Single-ply
1,Mariya Gulidova,1989,Russia,67.7,200,215,225,225,120,127.5,132.5,132.5,170,182.5,-187.5,182.5,540,75,Juniors,SBD,F,Single-ply
2,Stephanie King,1989,USA,69.1,165,185,-197.5,185,80,87.5,-90,87.5,165,175,185,185,457.5,75,Juniors,SBD,F,Single-ply
3,Amanda Moe,1990,USA,72.9,180,187.5,197.5,197.5,65,75,-77.5,75,160,170,172.5,172.5,445,75,Juniors,SBD,F,Single-ply
4,Keila Guerrero,1989,Ecuador,68.3,160,170,177.5,177.5,85,-90,90,90,160,170,-177.5,170,437.5,75,Juniors,SBD,F,Single-ply
5,Viktoriya Gavrina,1990,Russia,68.6,160,-170,-170,160,87.5,95,-100,95,160,167.5,-172.5,167.5,422.5,75,Juniors,SBD,F,Single-ply
1,Nadezhda Sindikas,1986,Russia,77.2,210,220,230,230,110,120,127.5,127.5,185,200,-210,200,557.5,82.5,Juniors,SBD,F,Single-ply
2,Olga Tikhomirova,1989,Russia,76.7,210,222.5,-227.5,222.5,100,-110,110,110,190,200,-225,200,532.5,82.5,Juniors,SBD,F,Single-ply
3,Alexandra Tichy,1990,Austria,81.1,160,180,-190,180,100,-110,-110,100,140,160,170,170,450,82.5,Juniors,SBD,F,Single-ply
4,Thelma Ólafsdóttir,1986,Iceland,77.1,120,130,-150,130,85,95,100,100,120,-130,-130,120,350,82.5,Juniors,SBD,F,Single-ply
1,Elizabeth Arnold,1986,USA,90,192.5,205,215,215,102.5,107.5,112.5,112.5,185,195,202.5,202.5,530,90,Juniors,SBD,F,Single-ply
2,Irina Yarochenko,1986,Russia,89.5,190,200,210,210,112.5,120,-125,120,185,195,-202.5,195,525,90,Juniors,SBD,F,Single-ply
DQ,Tiffany Mckenney,1989,USA,85.1,190,202.5,212.5,212.5,-157.5,-157.5,-157.5,,-172.5,172.5,-200,172.5,,90,Juniors,SBD,F,Single-ply
1,Olga Gemaletdinova,1986,Russia,118.6,265,282.5,,282.5,137.5,150,157.5,157.5,230,252.5,-261,252.5,692.5,90+,Juniors,SBD,F,Single-ply
2,Katie Sons,1990,USA,122.5,192.5,210,227.5,227.5,-132.5,132.5,-142.5,132.5,180,192.5,200,200,560,90+,Juniors,SBD,F,Single-ply
3,Anita Millington,1986,Australia,139.4,215,-225,225,225,75,125,130,130,182.5,200,-207.5,200,555,90+,Juniors,SBD,F,Single-ply
4,Raelene Marion,1986,Canada,90.6,190,202.5,220,220,-135,135,-142.5,135,165,182.5,-197.5,182.5,537.5,90+,Juniors,SBD,F,Single-ply
5,Samanta Vitery,1990,Ecuador,127.5,175,195,215,215,90,100,110,110,160,175,185,185,510,90+,Juniors,SBD,F,Single-ply
6,Ayano Mizuno,1990,Japan,90.8,130,140,-150,140,110,-122.5,-132.5,110,105,-115,115,115,365,90+,Juniors,SBD,F,Single-ply
