Name,Place,Division,Sex,Equipment,WeightClassKg,BodyweightKg,Age,Best3BenchKg,Bench4Kg,TotalKg,Event
Anthony Fregoso,1,Open,M,Single-ply,90,86.82,34,130,,130,B
John De Luca,DQ,Open,M,Single-ply,100,98.07,41,-217.5,,,B
Ricardo Costa,1,Open,M,Single-ply,110,109.41,35,260,,260,B
Alan Aerts,1,Open,M,Single-ply,125,123.92,55,225,,225,B
Ron Garcia,2,Open,M,Single-ply,125,113.4,48,190,,190,B
David Douglas,DQ,Open,M,Single-ply,125,123.92,24,-355,,,B
Ricardo Costa,1,Submasters 35-39,M,Single-ply,110,109.41,35,260,,260,B
John Dorsten,1,Masters 40-44,M,Single-ply,90,89.72,42,195,,195,B
Ron Garcia,2,Masters 45-49,M,Single-ply,125,113.4,48,190,192.5,190,B
Jeff Hunter,1,Masters 50-54,M,Single-ply,110,108.14,51,245,,245,B
Alan Aerts,2,Masters 55-59,M,Single-ply,125,123.92,55,225,,225,B
Margie Rodgers,1,Open,F,Raw,67.5,62.41,25,60,,60,B
Tracie Marquez,1,Masters 45-49,F,Raw,90,84.91,48,65,,65,B
Angela Tronske,2,Masters 45-49,F,Raw,52,49.53,46,45,,45,B
Shelley Denison,3,Masters 40-44,F,Raw,75,68.76,41,50,,50,B
Richard Stevens,1,Juniors 18-19,M,Raw,75,74.03,18,105,,105,B
Felix Santos,1,Open,M,Raw,75,71.58,42,165,,165,B
Andra Bellamy,2,Open,M,Raw,75,71.4,27,102.5,,102.5,B
Bruce Mendoza,1,Open,M,Raw,90,88,43,180,,180,B
Jess Santos,2,Open,M,Raw,90,85.73,38,177.5,,177.5,B
Juan Reyna,3,Open,M,Raw,90,86.73,28,127.5,,127.5,B
Gary Strassberg,1,Open,M,Raw,100,95.8,42,120,,120,B
Raul Acosta,1,Open,M,Raw,110,104.24,33,170,,170,B
David Douglas,1,Open,M,Raw,125,123.92,24,230,,230,B
Gonzalo Calzada Jr,2,Open,M,Raw,125,117.93,27,187.5,,187.5,B
Joe Dentice,3,Open,M,Raw,125,118.12,52,162.5,,162.5,B
Scott Hoekstra,1,Masters 40-44,M,Raw,125,120.2,44,227.5,,227.5,B
Ernie Dela Torre,2,Masters 40-44,M,Raw,140,129.27,42,225,,225,B
Bruce Mendoza,3,Masters 40-44,M,Raw,90,88,43,180,,180,B
Cliff Privetera,4,Masters 40-44,M,Raw,125,121.02,44,160,,160,B
Gary Strassberg,1,Masters 40-44,M,Raw,100,95.8,42,120,122.5,120,B
Felix Santos,1,Masters 40-44,M,Raw,75,71.58,42,165,,165,B
Quinn Bremes,1,Masters 50-54,M,Raw,140,134.99,50,194,,194,B
Daniel Smith III,1,Masters 65-69,M,Raw,110,106.14,68,165,,165,B
Ron Moormeister,2,Masters 60-64,M,Raw,140,130,64,170,,170,B
Lee Lichtle,3,Masters 65-69,M,Raw,82.5,81.74,66,125,,125,B
Jimmy Kolb,DQ,Open,M,Multi-ply,110,107.32,21,-410,,,B
