Event,Sex,Division,WeightClassKg,Best3BenchKg,Bench4Kg,Best3DeadliftKg,Deadlift4Kg,TotalKg,Name,State,Equipment,Place
B,M,Class 1,75,172.5,,,,172.5,Nick Buck,WI,Single-ply,1
B,M,Class 1,82.5,97.5,,,,97.5,Mark Jewell,MN,Single-ply,1
B,M,Class 1,90,215,,,,215,Brian Shekels,WI,Single-ply,1
B,M,Class 1,125,202.5,,,,202.5,Chase Ulrick,MN,Single-ply,1
B,M,Juniors 20-25,82.5,100,,,,100,Cody Mondeau,WI,Single-ply,1
B,M,Juniors 20-25,140+,135,,,,135,Donald Loew,WI,Single-ply,1
B,M,Law-Fire 48-55,100,155,,,,155,James Combs,MT,Multi-ply,1
B,M,Masters 47-53,90,237.5,,,,237.5,Tony Coduto,IL,Single-ply,1
B,M,Masters 47-53,100,92.5,,,,92.5,John Flagg,MN,Single-ply,1
B,M,Masters 47-53,110,210,,,,210,Michael Happach,IL,Single-ply,2
B,M,Masters 47-53,110,275,,,,275,Joey Murphy,GA,Single-ply,1
B,M,Masters 47-53,140,212.5,,,,212.5,Jay Larson,IL,Single-ply,1
B,M,Masters 47-53,140+,247.5,,,,247.5,Scott Bromeisl,WI,Single-ply,1
B,M,Masters 61-67,82.5,155,160,,,155,Jody Fjelstad,MN,Single-ply,1
B,M,Masters 75-79,75,90,92.5,,,90,Leon Dashevsky,MN,Single-ply,1
B,M,Open,90,237.5,,,,237.5,Tony Coduto,IL,Single-ply,1
B,M,Open,110,257.5,,,,257.5,Joey Murphy,GA,Single-ply,1
B,M,Open,125,272.5,,,,272.5,James Guffey,IL,Single-ply,1
B,M,Submasters 33-39,110,185,,,,185,Matt Krueger,MI,Single-ply,1
B,M,Submasters 33-39,125,272.5,,,,272.5,James Guffey,IL,Single-ply,1
B,M,Submasters 33-39,125,170,,,,170,Adrian Thompkins,MN,Single-ply,2
B,M,Teen 12-13,52,42.5,,,,42.5,Landon Tibbs,MN,Single-ply,1
B,M,Teen 16-17,117.5,95,,,,95,Eric Bromeisl,WI,Single-ply,1
B,M,Teen 16-17,140+,112.5,,,,112.5,Max Floeder,MN,Single-ply,1
D,M,Class 1,82.5,,,167.5,,167.5,Mark Jewell,MN,Single-ply,1
D,M,Class 1,125,,,282.5,,282.5,Chase Ulrick,MN,Single-ply,1
D,M,Juniors 20-25,82.5,,,185,,185,Cody Mondeau,WI,Single-ply,1
D,M,Juniors 20-25,140+,,,275,,275,Donald Loew,WI,Single-ply,1
D,M,Masters 47-53,100,,,165,,165,John Flagg,MN,Single-ply,1
D,M,Masters 47-53,140+,,,255,,255,Scott Bromeisl,WI,Single-ply,1
D,M,Masters 54-60,90,,,235,,235,Scott Hubert,WI,Single-ply,1
D,M,Masters 54-60,100,,,265,,265,Mitch Edelstein,MN,Single-ply,1
D,M,Masters 61-67,90,,,257.5,,257.5,Jerry Shetka,MN,Single-ply,1
D,M,Masters 68-74,90,,,247.5,,247.5,Robert Krowech,MN,Single-ply,1
D,M,Open,125,,,272.5,,272.5,James Guffey,IL,Multi-ply,1
D,M,Submasters 33-39,90,,,235,,235,Jason Burgoon,MN,Single-ply,1
D,M,Submasters 33-39,110,,,307.5,,307.5,Matt Krueger,MI,Single-ply,1
D,M,Submasters 33-39,125,,,272.5,,272.5,James Guffey,IL,Multi-ply,1
D,M,Submasters 33-39,125,,,270,,270,Adrian Thompkins,MN,Single-ply,1
D,M,Teen 12-13,52,,,87.5,,87.5,Landon Tibbs,MN,Single-ply,1
D,M,Teen 14-15,75,,,240,,240,Sam Bassan,WI,Single-ply,1
D,M,Teen 14-15,82.5,,,192.5,,192.5,Austin Payne,WI,Single-ply,1
D,M,Teen 16-17,117.5,,,205,,205,Eric Bromeisl,WI,Single-ply,1
D,M,Teen 16-17,140+,,,182.5,,182.5,Max Floeder,MN,Single-ply,1
D,M,Teen 18-19,90,,,230,,230,Drew Kessen,WI,Single-ply,1
BD,M,Submasters 33-39,110,185,,307.5,,492.5,Matt Krueger,MI,Single-ply,1
B,F,Class 1,67.5,57.5,,,,57.5,Brianna Bernard,MN,Single-ply,1
B,F,Class 1,90+,80,,,,80,Tiffany Capouch,MN,Single-ply,1
B,F,Juniors,60,52.5,,,,52.5,Leah Anderson,MN,Single-ply,1
B,F,Juniors,75,47.5,,,,47.5,Jaime Burgoon,MN,Single-ply,1
B,F,Masters 40-46,56,77.5,,,,77.5,Cheryl Edelstein,MN,Single-ply,1
B,F,Masters 40-46,67.5,55,,,,55,Heather Petri,MN,Single-ply,1
B,F,Masters 47-53,100,75,,,,75,Gail Franklin,MN,Single-ply,1
B,F,Masters 54-60,75,102.5,,,,102.5,Lisa Staplin,MN,Multi-ply,1
B,F,Masters 61-67,90,40,,,,40,Arlene Linton,MN,Single-ply,1
B,F,Open,56,77.5,,,,77.5,Cheryl Edelstein,MN,Single-ply,1
B,F,Submasters,67.5,57.5,,,,57.5,Michelle Bialek,MN,Single-ply,1
B,F,Submasters,90+,62.5,,,,62.5,Christine Ruscher,MN,Single-ply,1
D,F,Class 1,90+,,,165,,165,Tiffany Capouch,MN,Single-ply,1
D,F,Disabled 2 60,82.5,,,120,,120,Marlene Wexler,MN,Single-ply,1
D,F,Juniors,60,,,85,87.5,85,Leah Anderson,MN,Single-ply,1
D,F,Juniors,75,,,100,,100,Jaime Burgoon,MN,Single-ply,1
D,F,Masters 40-46,56,,,147.5,,147.5,Cheryl Edelstein,MN,Single-ply,1
D,F,Masters 40-46,67.5,,,122.5,,122.5,Heather Petri,MN,Single-ply,1
D,F,Masters 47-53,100,,,140,,140,Gail Franklin,MN,Single-ply,1
D,F,Masters 54-60,60,,,192.5,,192.5,Jane Mc Cubbin,WI,Single-ply,1
D,F,Masters 61-67,90,,,70,,70,Arlene Linton,MN,Single-ply,1
D,F,Masters 68-74,82.5,,,120,,120,Marlene Wexler,MN,Single-ply,1
D,F,Masters 68-74,100,,,97.5,,97.5,Jacqueline Fendler,MN,Single-ply,1
D,F,Open,56,,,147.5,,147.5,Cheryl Edelstein,MN,Single-ply,1
D,F,Open,60,,,192.5,,192.5,Jane Mc Cubbin,WI,Single-ply,1
D,F,Open,67.5,,,137.5,,137.5,Brianna Bernard,MN,Single-ply,1
D,F,Submasters,67.5,,,122.5,,122.5,Michelle Bialek,MN,Single-ply,1
D,F,Submasters,90+,,,145,,145,Christine Ruscher,MN,Single-ply,1
D,F,Teen 16-17,100,,,105,107.5,105,Amanda Weeks-Combs,MT,Single-ply,1
